<?xml version="1.0" encoding="utf-8"?>
<!-- Generator: Adobe Illustrator 16.0.0, SVG Export Plug-In . SVG Version: 6.00 Build 0)  -->
<!DOCTYPE svg PUBLIC "-//W3C//DTD SVG 1.1//EN" "http://www.w3.org/Graphics/SVG/1.1/DTD/svg11.dtd">
<svg version="1.1" id="Layer_1" xmlns="http://www.w3.org/2000/svg" xmlns:xlink="http://www.w3.org/1999/xlink" x="0px" y="0px"
	 width="253.083px" height="371.577px" viewBox="0 0 253.083 371.577" enable-background="new 0 0 253.083 371.577"
	 xml:space="preserve">
<path fill="#BCBEC0" d="M236.212,44.042c-73.933-3.545-104.036,29.638-108.988,32.987c-4.952-3.35-35.057-36.533-108.988-32.987
	c-0.068,0.003-15.24,15.731-15.24,15.731c92.766-0.813,124.229,32.82,124.229,32.82s31.463-33.633,124.229-32.82
	C251.452,59.773,236.282,44.044,236.212,44.042z"/>
<path fill="#BCBEC0" d="M217.453,23.042c-61.208-2.935-86.131,24.537-90.229,27.31c-4.099-2.772-29.023-30.244-90.23-27.31
	c-0.056,0.003-12.616,13.024-12.616,13.024c76.798-0.673,102.846,27.171,102.846,27.171s26.047-27.844,102.848-27.171
	C230.071,36.066,217.51,23.044,217.453,23.042z"/>
<path fill="#BCBEC0" d="M200.351,3.221c-49.605-2.379-69.807,19.885-73.127,22.133c-3.322-2.248-23.521-24.513-73.125-22.133
	c-0.047,0.002-10.227,10.555-10.227,10.555c62.243-0.546,83.353,22.021,83.353,22.021s21.11-22.567,83.353-22.021
	C210.576,13.776,200.395,3.223,200.351,3.221z"/>
<circle fill="#BCBEC0" cx="127.223" cy="155.03" r="40.143"/>
<path fill="#BCBEC0" d="M200.263,93.236v71.886c0,20.237-12.645,36.638-28.243,36.638h-44.452h-0.688H82.429
	c-15.599,0-28.243-16.4-28.243-36.638V93.236c0-11.289-24.266-31.618-51.535-28.574v125.517c0,23.04,21.633,41.718,48.323,41.718
	h75.906h0.688h75.906c26.689,0,48.323-18.678,48.323-41.718V64.662C224.527,61.619,200.263,81.947,200.263,93.236z"/>
<text transform="matrix(1 0 0 1 215.584 74.5146)" display="none" font-family="'Asap-Bold'" font-size="35.1341">SEKOLAH TINGGI TEKNOLOGI BANDUNG</text>
<g display="none">
	<path display="inline" d="M227.3,151.952v-13.926l-10.371-18.892h4.82l4.626,9.057c1.266,2.482,2.239,4.479,3.262,6.768h0.098
		c0.926-2.143,2.045-4.285,3.312-6.768l4.723-9.057h4.82l-11.004,18.843v13.975H227.3z"/>
	<path display="inline" d="M263.817,139.975c0,8.715-6.037,12.513-11.734,12.513c-6.379,0-11.296-4.674-11.296-12.124
		c0-7.888,5.161-12.513,11.686-12.513C259.24,127.851,263.817,132.768,263.817,139.975z M245.12,140.218
		c0,5.161,2.971,9.057,7.157,9.057c4.091,0,7.158-3.847,7.158-9.154c0-3.992-1.996-9.057-7.061-9.057
		C247.312,131.063,245.12,135.738,245.12,140.218z"/>
	<path display="inline" d="M288.94,145.525c0,2.435,0.049,4.576,0.194,6.427h-3.798l-0.243-3.847h-0.098
		c-1.12,1.899-3.603,4.382-7.79,4.382c-3.701,0-8.132-2.045-8.132-10.322v-13.779h4.285v13.049c0,4.479,1.363,7.499,5.259,7.499
		c2.872,0,4.869-1.997,5.647-3.896c0.244-0.633,0.39-1.412,0.39-2.191v-14.461h4.285V145.525z"/>
	<path display="inline" d="M296.048,135.738c0-2.775-0.049-5.161-0.195-7.353h3.749l0.146,4.626h0.194
		c1.071-3.165,3.652-5.161,6.525-5.161c0.486,0,0.827,0.048,1.217,0.146v4.042c-0.438-0.098-0.876-0.146-1.461-0.146
		c-3.019,0-5.161,2.288-5.745,5.502c-0.098,0.584-0.195,1.266-0.195,1.996v12.563h-4.235V135.738z"/>
	<path display="inline" d="M322.437,119.524c2.045-0.341,4.724-0.634,8.132-0.634c4.188,0,7.255,0.975,9.202,2.728
		c1.802,1.558,2.873,3.943,2.873,6.865c0,2.97-0.877,5.307-2.532,7.012c-2.239,2.386-5.892,3.603-10.03,3.603
		c-1.266,0-2.435-0.049-3.408-0.292v13.146h-4.236V119.524z M326.673,135.349c0.925,0.243,2.094,0.341,3.506,0.341
		c5.112,0,8.229-2.483,8.229-7.012c0-4.333-3.067-6.427-7.741-6.427c-1.851,0-3.263,0.146-3.993,0.341V135.349z"/>
	<path display="inline" d="M359.977,151.952l-0.341-2.97h-0.146c-1.314,1.85-3.846,3.505-7.206,3.505
		c-4.771,0-7.206-3.359-7.206-6.768c0-5.697,5.063-8.813,14.169-8.765v-0.486c0-1.948-0.535-5.454-5.355-5.454
		c-2.191,0-4.479,0.683-6.136,1.753l-0.974-2.823c1.948-1.267,4.771-2.094,7.742-2.094c7.206,0,8.959,4.917,8.959,9.641v8.813
		c0,2.045,0.098,4.042,0.39,5.648H359.977z M359.344,139.926c-4.675-0.098-9.981,0.73-9.981,5.307c0,2.775,1.85,4.091,4.041,4.091
		c3.067,0,5.016-1.948,5.697-3.944c0.146-0.438,0.243-0.925,0.243-1.363V139.926z"/>
	<path display="inline" d="M370.396,135.738c0-2.775-0.049-5.161-0.195-7.353h3.749l0.146,4.626h0.194
		c1.071-3.165,3.652-5.161,6.525-5.161c0.486,0,0.827,0.048,1.217,0.146v4.042c-0.438-0.098-0.876-0.146-1.461-0.146
		c-3.019,0-5.161,2.288-5.745,5.502c-0.098,0.584-0.195,1.266-0.195,1.996v12.563h-4.235V135.738z"/>
	<path display="inline" d="M392.646,121.618v6.768h6.135v3.263h-6.135v12.708c0,2.921,0.827,4.577,3.214,4.577
		c1.119,0,1.947-0.146,2.482-0.292l0.195,3.213c-0.828,0.341-2.143,0.585-3.798,0.585c-1.996,0-3.604-0.634-4.626-1.802
		c-1.217-1.267-1.655-3.36-1.655-6.135v-12.854h-3.652v-3.263h3.652v-5.648L392.646,121.618z"/>
	<path display="inline" d="M403.601,134.765c0-2.435-0.049-4.432-0.195-6.379h3.798l0.244,3.896h0.097
		c1.169-2.24,3.896-4.431,7.791-4.431c3.262,0,8.326,1.947,8.326,10.03v14.071h-4.285v-13.585c0-3.798-1.412-6.963-5.453-6.963
		c-2.824,0-5.016,1.997-5.745,4.383c-0.195,0.535-0.293,1.266-0.293,1.996v14.169h-4.284V134.765z"/>
	<path display="inline" d="M433.008,140.948c0.098,5.794,3.798,8.18,8.082,8.18c3.068,0,4.918-0.535,6.525-1.217l0.73,3.067
		c-1.51,0.682-4.091,1.461-7.84,1.461c-7.255,0-11.588-4.772-11.588-11.881c0-7.109,4.188-12.708,11.053-12.708
		c7.693,0,9.738,6.768,9.738,11.102c0,0.876-0.098,1.558-0.146,1.996H433.008z M445.57,137.881c0.048-2.727-1.12-6.963-5.94-6.963
		c-4.334,0-6.232,3.992-6.573,6.963H445.57z"/>
	<path display="inline" d="M455.016,135.738c0-2.775-0.049-5.161-0.195-7.353h3.749l0.146,4.626h0.194
		c1.071-3.165,3.652-5.161,6.525-5.161c0.486,0,0.827,0.048,1.217,0.146v4.042c-0.438-0.098-0.876-0.146-1.461-0.146
		c-3.019,0-5.161,2.288-5.745,5.502c-0.098,0.584-0.194,1.266-0.194,1.996v12.563h-4.236V135.738z"/>
	<path display="inline" d="M486.419,121.618v6.768h6.135v3.263h-6.135v12.708c0,2.921,0.827,4.577,3.214,4.577
		c1.119,0,1.947-0.146,2.482-0.292l0.195,3.213c-0.828,0.341-2.143,0.585-3.798,0.585c-1.996,0-3.604-0.634-4.626-1.802
		c-1.217-1.267-1.655-3.36-1.655-6.135v-12.854h-3.652v-3.263h3.652v-5.648L486.419,121.618z"/>
	<path display="inline" d="M518.408,139.975c0,8.715-6.037,12.513-11.734,12.513c-6.379,0-11.296-4.674-11.296-12.124
		c0-7.888,5.161-12.513,11.686-12.513C513.831,127.851,518.408,132.768,518.408,139.975z M499.711,140.218
		c0,5.161,2.971,9.057,7.157,9.057c4.091,0,7.158-3.847,7.158-9.154c0-3.992-1.996-9.057-7.061-9.057
		C501.902,131.063,499.711,135.738,499.711,140.218z"/>
	<path display="inline" d="M559.257,150.491c-1.898,0.682-5.648,1.802-10.079,1.802c-4.966,0-9.057-1.266-12.27-4.333
		c-2.824-2.728-4.577-7.109-4.577-12.222c0.049-9.787,6.768-16.944,17.772-16.944c3.798,0,6.768,0.827,8.18,1.509l-1.022,3.457
		c-1.753-0.778-3.944-1.412-7.255-1.412c-7.985,0-13.195,4.967-13.195,13.195c0,8.326,5.016,13.244,12.659,13.244
		c2.775,0,4.675-0.39,5.648-0.876v-9.787h-6.671v-3.408h10.81V150.491z"/>
	<path display="inline" d="M565.586,117.382h4.284v34.57h-4.284V117.382z"/>
	<path display="inline" d="M598.402,139.975c0,8.715-6.037,12.513-11.734,12.513c-6.379,0-11.296-4.674-11.296-12.124
		c0-7.888,5.161-12.513,11.686-12.513C593.825,127.851,598.402,132.768,598.402,139.975z M579.705,140.218
		c0,5.161,2.971,9.057,7.157,9.057c4.091,0,7.158-3.847,7.158-9.154c0-3.992-1.996-9.057-7.061-9.057
		C581.896,131.063,579.705,135.738,579.705,140.218z"/>
	<path display="inline" d="M603.611,151.952c0.098-1.606,0.195-3.992,0.195-6.086v-28.484h4.236v14.802h0.097
		c1.51-2.629,4.236-4.333,8.034-4.333c5.843,0,9.981,4.869,9.933,12.026c0,8.424-5.307,12.61-10.565,12.61
		c-3.408,0-6.135-1.314-7.888-4.431h-0.146l-0.194,3.896H603.611z M608.043,142.506c0,0.536,0.097,1.071,0.194,1.559
		c0.828,2.97,3.311,5.015,6.427,5.015c4.479,0,7.158-3.651,7.158-9.057c0-4.723-2.435-8.764-7.012-8.764
		c-2.922,0-5.648,1.996-6.524,5.259c-0.098,0.486-0.243,1.07-0.243,1.753V142.506z"/>
	<path display="inline" d="M644.559,151.952l-0.341-2.97h-0.146c-1.314,1.85-3.846,3.505-7.206,3.505
		c-4.771,0-7.206-3.359-7.206-6.768c0-5.697,5.063-8.813,14.169-8.765v-0.486c0-1.948-0.535-5.454-5.355-5.454
		c-2.191,0-4.479,0.683-6.136,1.753l-0.974-2.823c1.948-1.267,4.771-2.094,7.742-2.094c7.206,0,8.959,4.917,8.959,9.641v8.813
		c0,2.045,0.098,4.042,0.39,5.648H644.559z M643.926,139.926c-4.675-0.098-9.981,0.73-9.981,5.307c0,2.775,1.85,4.091,4.041,4.091
		c3.067,0,5.016-1.948,5.697-3.944c0.146-0.438,0.243-0.925,0.243-1.363V139.926z"/>
	<path display="inline" d="M654.978,117.382h4.284v34.57h-4.284V117.382z"/>
	<path display="inline" d="M699.868,150.881c-1.558,0.779-4.674,1.559-8.667,1.559c-9.251,0-16.214-5.844-16.214-16.604
		c0-10.274,6.963-17.237,17.139-17.237c4.091,0,6.671,0.877,7.791,1.461l-1.022,3.457c-1.606-0.779-3.896-1.363-6.622-1.363
		c-7.693,0-12.806,4.918-12.806,13.536c0,8.034,4.626,13.195,12.611,13.195c2.58,0,5.21-0.536,6.914-1.363L699.868,150.881z"/>
	<path display="inline" d="M725.819,139.975c0,8.715-6.037,12.513-11.734,12.513c-6.379,0-11.296-4.674-11.296-12.124
		c0-7.888,5.161-12.513,11.686-12.513C721.242,127.851,725.819,132.768,725.819,139.975z M707.122,140.218
		c0,5.161,2.971,9.057,7.157,9.057c4.091,0,7.158-3.847,7.158-9.154c0-3.992-1.996-9.057-7.061-9.057
		C709.313,131.063,707.122,135.738,707.122,140.218z"/>
	<path display="inline" d="M731.224,134.765c0-2.435-0.049-4.432-0.195-6.379h3.749l0.195,3.798h0.146
		c1.315-2.239,3.506-4.333,7.401-4.333c3.214,0,5.648,1.947,6.671,4.723h0.098c0.729-1.314,1.655-2.337,2.629-3.067
		c1.412-1.071,2.97-1.655,5.21-1.655c3.116,0,7.742,2.045,7.742,10.225v13.877h-4.188v-13.341c0-4.528-1.656-7.256-5.113-7.256
		c-2.435,0-4.333,1.802-5.063,3.896c-0.194,0.585-0.341,1.363-0.341,2.143v14.559h-4.188v-14.12c0-3.749-1.655-6.477-4.918-6.477
		c-2.678,0-4.625,2.143-5.307,4.285c-0.244,0.633-0.341,1.363-0.341,2.094v14.218h-4.188V134.765z"/>
	<path display="inline" d="M771.83,136.079c0-3.019-0.098-5.453-0.195-7.693h3.847l0.195,4.041h0.097
		c1.753-2.872,4.528-4.576,8.375-4.576c5.697,0,9.981,4.82,9.981,11.978c0,8.473-5.161,12.659-10.712,12.659
		c-3.116,0-5.843-1.363-7.255-3.7h-0.097v12.806h-4.236V136.079z M776.066,142.36c0,0.633,0.097,1.217,0.194,1.753
		c0.779,2.97,3.359,5.015,6.427,5.015c4.528,0,7.158-3.7,7.158-9.105c0-4.723-2.483-8.764-7.012-8.764
		c-2.922,0-5.648,2.094-6.476,5.307c-0.146,0.536-0.292,1.169-0.292,1.753V142.36z"/>
	<path display="inline" d="M801.919,140.948c0.098,5.794,3.798,8.18,8.083,8.18c3.067,0,4.917-0.535,6.524-1.217l0.73,3.067
		c-1.51,0.682-4.091,1.461-7.84,1.461c-7.255,0-11.588-4.772-11.588-11.881c0-7.109,4.188-12.708,11.053-12.708
		c7.693,0,9.738,6.768,9.738,11.102c0,0.876-0.098,1.558-0.146,1.996H801.919z M814.481,137.881c0.048-2.727-1.12-6.963-5.94-6.963
		c-4.334,0-6.232,3.992-6.573,6.963H814.481z"/>
	<path display="inline" d="M829.087,121.618v6.768h6.135v3.263h-6.135v12.708c0,2.921,0.827,4.577,3.214,4.577
		c1.119,0,1.947-0.146,2.482-0.292l0.195,3.213c-0.828,0.341-2.143,0.585-3.798,0.585c-1.996,0-3.604-0.634-4.626-1.802
		c-1.217-1.267-1.655-3.36-1.655-6.135v-12.854h-3.652v-3.263h3.652v-5.648L829.087,121.618z"/>
	<path display="inline" d="M844.813,121.764c0.049,1.461-1.022,2.63-2.727,2.63c-1.51,0-2.581-1.169-2.581-2.63
		c0-1.509,1.12-2.678,2.679-2.678C843.79,119.086,844.813,120.255,844.813,121.764z M840.041,151.952v-23.566h4.284v23.566H840.041z
		"/>
	<path display="inline" d="M856.596,121.618v6.768h6.135v3.263h-6.135v12.708c0,2.921,0.827,4.577,3.214,4.577
		c1.119,0,1.947-0.146,2.482-0.292l0.195,3.213c-0.828,0.341-2.143,0.585-3.798,0.585c-1.996,0-3.604-0.634-4.626-1.802
		c-1.217-1.267-1.655-3.36-1.655-6.135v-12.854h-3.652v-3.263h3.652v-5.648L856.596,121.618z"/>
	<path display="inline" d="M872.321,121.764c0.049,1.461-1.022,2.63-2.727,2.63c-1.51,0-2.581-1.169-2.581-2.63
		c0-1.509,1.12-2.678,2.679-2.678C871.299,119.086,872.321,120.255,872.321,121.764z M867.55,151.952v-23.566h4.284v23.566H867.55z"
		/>
	<path display="inline" d="M900.27,139.975c0,8.715-6.037,12.513-11.734,12.513c-6.379,0-11.296-4.674-11.296-12.124
		c0-7.888,5.161-12.513,11.686-12.513C895.692,127.851,900.27,132.768,900.27,139.975z M881.572,140.218
		c0,5.161,2.971,9.057,7.157,9.057c4.091,0,7.158-3.847,7.158-9.154c0-3.992-1.996-9.057-7.061-9.057
		C883.764,131.063,881.572,135.738,881.572,140.218z"/>
	<path display="inline" d="M905.673,134.765c0-2.435-0.049-4.432-0.195-6.379h3.798l0.244,3.896h0.097
		c1.169-2.24,3.896-4.431,7.791-4.431c3.262,0,8.326,1.947,8.326,10.03v14.071h-4.285v-13.585c0-3.798-1.412-6.963-5.453-6.963
		c-2.824,0-5.016,1.997-5.745,4.383c-0.195,0.535-0.293,1.266-0.293,1.996v14.169h-4.284V134.765z"/>
</g>
<g display="none">
	<path display="inline" d="M266.113,89.104c0,3.155-0.604,6.012-1.814,8.57c-1.209,2.559-2.927,4.75-5.152,6.571
		c-2.227,1.823-4.916,3.233-8.07,4.232s-6.677,1.499-10.568,1.499c-2.068,0-4.197-0.123-6.388-0.368
		c-2.19-0.246-4.355-0.588-6.493-1.025c-2.139-0.438-4.188-0.973-6.151-1.604s-3.732-1.349-5.311-2.155l3.786-11.357
		c1.717,0.561,3.391,1.078,5.021,1.551c1.63,0.473,3.251,0.885,4.863,1.235c1.612,0.351,3.233,0.622,4.863,0.814
		c1.63,0.193,3.304,0.29,5.021,0.29c3.294,0,5.836-0.691,7.623-2.077c1.788-1.384,2.682-3.338,2.682-5.862
		c0-1.262-0.298-2.4-0.894-3.417c-0.597-1.016-1.455-1.936-2.576-2.76c-1.122-0.823-2.472-1.585-4.049-2.287
		c-1.577-0.701-3.33-1.367-5.257-1.998c-3.226-1.086-6.135-2.295-8.729-3.627c-2.594-1.332-4.802-2.866-6.624-4.601
		c-1.823-1.735-3.233-3.698-4.232-5.889c-0.999-2.19-1.499-4.67-1.499-7.439c0-3.155,0.605-6.02,1.814-8.596
		s2.926-4.785,5.152-6.625c2.226-1.84,4.907-3.268,8.044-4.285c3.137-1.016,6.651-1.525,10.542-1.525c2.173,0,4.337,0.167,6.493,0.5
		c2.155,0.333,4.214,0.754,6.178,1.262c1.962,0.508,3.768,1.078,5.415,1.708s3.05,1.262,4.206,1.893l-2.944,11.409
		c-1.753-0.595-3.4-1.147-4.942-1.656c-1.542-0.507-3.049-0.946-4.521-1.314c-1.472-0.368-2.944-0.657-4.416-0.868
		c-1.473-0.21-2.997-0.315-4.574-0.315c-3.47,0-6.056,0.736-7.755,2.208c-1.7,1.472-2.55,3.365-2.55,5.678
		c0,1.123,0.21,2.165,0.631,3.128c0.42,0.964,1.086,1.867,1.998,2.708c0.911,0.841,2.085,1.622,3.522,2.34
		c1.437,0.719,3.188,1.411,5.258,2.077c3.995,1.262,7.413,2.612,10.252,4.048c2.839,1.438,5.152,3.032,6.94,4.785
		c1.787,1.753,3.102,3.707,3.943,5.862C265.692,83.979,266.113,86.406,266.113,89.104z"/>
	<path display="inline" d="M308.017,48.989v59.937h-15.721V48.989h-20.294V37.422h56.256v11.567H308.017z"/>
	<path display="inline" d="M368.164,48.989v59.937h-15.721V48.989h-20.294V37.422h56.256v11.567H368.164z"/>
	<path display="inline" d="M424.211,37.422h24.553c4.101,0,7.755,0.456,10.962,1.367c3.207,0.912,5.933,2.208,8.176,3.891
		c2.243,1.682,3.951,3.698,5.126,6.046c1.174,2.349,1.762,4.96,1.762,7.834c0,2.033-0.271,3.874-0.815,5.521
		c-0.543,1.648-1.227,3.111-2.05,4.39c-0.824,1.28-1.727,2.393-2.708,3.339s-1.928,1.735-2.839,2.366
		c4.24,1.192,7.535,3.181,9.884,5.967c2.349,2.787,3.523,6.318,3.523,10.594c0,3.015-0.631,5.766-1.894,8.255
		c-1.262,2.489-3.075,4.618-5.441,6.388c-2.366,1.771-5.231,3.138-8.596,4.101c-3.365,0.965-7.15,1.446-11.356,1.446h-28.286V37.422
		z M439.931,49.515v17.613h16.299c0.701-0.981,1.349-2.243,1.945-3.785c0.596-1.542,0.894-3.313,0.894-5.311
		c0-2.804-0.955-4.924-2.865-6.362c-1.911-1.437-4.671-2.155-8.28-2.155H439.931z M439.931,77.958v18.875h11.409
		c1.963,0,3.75-0.184,5.363-0.552c1.611-0.368,2.987-0.92,4.127-1.656c1.139-0.736,2.024-1.683,2.655-2.839
		c0.631-1.156,0.946-2.523,0.946-4.101c0-3.189-0.981-5.608-2.944-7.256c-1.964-1.647-4.855-2.471-8.675-2.471H439.931z"/>
	<path display="inline" d="M533.779,93.994h-25.815l-4.837,14.932H487.67l24.658-71.504h17.087l24.711,71.504h-15.457
		L533.779,93.994z M511.697,82.427h18.35l-9.201-28.181L511.697,82.427z"/>
	<path display="inline" d="M564.537,37.422h15.667v0.053l0.053-0.053l30.547,48.212V37.422h15.721v71.504h-15.721l-30.6-48.318
		v48.318h-15.667V37.422z"/>
	<path display="inline" d="M642.245,37.422h24.027c5.396,0,10.286,0.85,14.669,2.55c4.381,1.701,8.113,4.101,11.198,7.203
		c3.084,3.102,5.459,6.844,7.124,11.225c1.664,4.382,2.497,9.271,2.497,14.669c0,5.398-0.833,10.296-2.497,14.695
		c-1.665,4.399-4.04,8.167-7.124,11.304c-3.085,3.138-6.817,5.565-11.198,7.282c-4.383,1.718-9.272,2.576-14.669,2.576h-24.027
		V37.422z M657.965,48.883v48.581h7.15c3.084,0,5.896-0.473,8.438-1.419c2.541-0.947,4.706-2.419,6.493-4.417
		c1.788-1.998,3.172-4.53,4.153-7.597c0.981-3.066,1.473-6.721,1.473-10.962c0-4.241-0.491-7.887-1.473-10.936
		s-2.365-5.555-4.153-7.519c-1.787-1.962-3.952-3.408-6.493-4.337c-2.542-0.928-5.354-1.394-8.438-1.394H657.965z"/>
	<path display="inline" d="M758.701,37.422h15.668v48.581c0,3.821-0.719,7.212-2.155,10.173c-1.438,2.963-3.47,5.468-6.099,7.519
		s-5.775,3.61-9.438,4.68c-3.663,1.068-7.721,1.604-12.172,1.604c-4.416,0-8.447-0.544-12.093-1.63s-6.773-2.663-9.385-4.732
		c-2.611-2.067-4.636-4.601-6.072-7.598c-1.438-2.996-2.155-6.405-2.155-10.226v-48.37h15.72v48.37c0,2.069,0.342,3.9,1.025,5.495
		c0.684,1.595,1.647,2.927,2.892,3.996c1.244,1.069,2.716,1.875,4.417,2.419c1.699,0.543,3.583,0.814,5.651,0.814
		c2.104,0,4.022-0.271,5.757-0.814c1.735-0.544,3.234-1.35,4.496-2.419c1.262-1.069,2.234-2.4,2.918-3.996
		c0.684-1.595,1.024-3.426,1.024-5.495V37.422z"/>
	<path display="inline" d="M790.09,37.422h15.667v0.053l0.053-0.053l30.547,48.212V37.422h15.721v71.504h-15.721l-30.6-48.318
		v48.318H790.09V37.422z"/>
	<path display="inline" d="M898.081,69.809h27.603v34.911c-3.715,1.683-7.563,2.979-11.54,3.891
		c-3.979,0.911-8.316,1.367-13.013,1.367c-5.573,0-10.577-0.981-15.011-2.944c-4.435-1.963-8.185-4.627-11.251-7.992
		c-3.067-3.364-5.416-7.272-7.046-11.724c-1.629-4.451-2.444-9.166-2.444-14.143c0-5.222,0.885-10.077,2.655-14.563
		c1.77-4.486,4.302-8.377,7.597-11.672c3.295-3.294,7.309-5.879,12.04-7.755c4.732-1.875,10.077-2.813,16.036-2.813
		c3.855,0,7.309,0.334,10.357,0.999c3.05,0.667,5.679,1.49,7.887,2.471l-2.261,10.568c-1.998-0.666-4.303-1.262-6.914-1.788
		s-5.477-0.789-8.596-0.789c-3.681,0-6.959,0.57-9.832,1.708c-2.875,1.14-5.293,2.787-7.256,4.942s-3.462,4.811-4.495,7.965
		c-1.034,3.155-1.551,6.73-1.551,10.726c0,3.61,0.473,6.958,1.419,10.042c0.947,3.085,2.331,5.757,4.154,8.018
		c1.821,2.261,4.065,4.04,6.729,5.336c2.663,1.297,5.713,1.945,9.148,1.945c1.577,0,3.102-0.087,4.574-0.263
		c1.472-0.175,2.873-0.474,4.206-0.894V81.271h-13.197V69.809z"/>
</g>
<g>
	<path fill="#BCBEC0" d="M43.582,256.925c-5.144,0-7.714,1.301-7.714,3.903c0,1.55,0.851,2.711,2.556,3.485
		c1.704,0.775,3.825,1.473,6.366,2.091l8.271,1.858c6.752,1.55,11.678,4.4,14.777,8.551c1.673,2.355,2.509,5.483,2.509,9.387
		c0,3.966-0.682,7.342-2.044,10.13c-1.364,2.788-3.285,5.081-5.762,6.877c-4.771,3.471-11.617,5.205-20.539,5.205
		c-7.683,0-14.003-1.642-18.959-4.926c-5.515-3.718-8.271-8.891-8.271-15.521v-1.115c0-0.372,0.031-0.743,0.093-1.115h18.03
		c-0.063,0.248-0.093,0.683-0.093,1.301c0,0.683,0.14,1.426,0.418,2.23c0.279,0.807,0.728,1.52,1.348,2.138
		c1.487,1.363,3.469,2.045,5.948,2.045c2.478,0,4.306-0.107,5.483-0.325c1.176-0.217,2.075-0.512,2.695-0.883
		c1.053-0.619,1.58-1.61,1.58-2.975c0-1.362-0.836-2.416-2.509-3.159c-1.673-0.744-3.78-1.395-6.32-1.952
		c-2.541-0.558-5.283-1.192-8.225-1.905c-2.944-0.712-5.685-1.78-8.225-3.206c-5.887-3.407-8.829-8.736-8.829-15.985
		c0-6.443,2.664-11.524,7.993-15.241c4.833-3.346,11.183-5.019,19.052-5.019c7.558,0,13.662,1.549,18.309,4.646
		c5.08,3.471,7.621,8.427,7.621,14.87v1.115H51.295v-0.372c0-1.61-0.59-3.035-1.766-4.275
		C48.352,257.545,46.37,256.925,43.582,256.925z"/>
	<path fill="#BCBEC0" d="M73.878,259.063v-15.335h51.672v15.335H109.38v48.42H90.049v-48.42H73.878z"/>
	<path fill="#BCBEC0" d="M128.34,259.063v-15.335h51.672v15.335h-16.171v48.42h-19.33v-48.42H128.34z"/>
	<path fill="#BCBEC0" d="M227.688,274.583c8.116,1.798,12.175,7.095,12.175,15.892c0,4.71-1.719,8.722-5.158,12.036
		c-3.438,3.314-7.605,4.972-12.5,4.972h-35.501v-63.755h34.943c4.647,0,8.581,1.52,11.804,4.555
		c3.283,3.036,4.925,6.723,4.925,11.059c0,6.383-2.199,10.781-6.598,13.197c-1.302,0.683-2.665,1.24-4.09,1.673V274.583z
		 M204.641,268.17h10.688c1.301,0,2.4-0.448,3.299-1.348c0.897-0.897,1.348-1.998,1.348-3.299v-1.58c0-1.301-0.45-2.4-1.348-3.299
		c-0.898-0.897-1.998-1.348-3.299-1.348h-10.688V268.17z M204.641,292.705h11.803c1.301,0,2.4-0.448,3.299-1.348
		c0.897-0.896,1.348-1.998,1.348-3.299v-1.673c0-1.301-0.45-2.4-1.348-3.299c-0.898-0.897-1.998-1.348-3.299-1.348h-11.803V292.705z
		"/>
</g>
<g>
	<path fill="#BCBEC0" d="M37.175,328.283l2.953-0.287c0.178,0.991,0.538,1.719,1.082,2.184c0.543,0.465,1.276,0.697,2.199,0.697
		c0.978,0,1.714-0.207,2.21-0.62c0.495-0.414,0.743-0.897,0.743-1.451c0-0.355-0.104-0.658-0.313-0.907
		c-0.209-0.25-0.573-0.467-1.092-0.651c-0.355-0.123-1.166-0.342-2.43-0.656c-1.627-0.403-2.769-0.898-3.425-1.487
		c-0.923-0.826-1.384-1.835-1.384-3.024c0-0.766,0.217-1.481,0.651-2.148c0.434-0.666,1.06-1.174,1.877-1.522
		c0.816-0.349,1.803-0.523,2.958-0.523c1.887,0,3.307,0.414,4.261,1.241c0.953,0.827,1.454,1.932,1.502,3.312l-3.035,0.134
		c-0.13-0.772-0.409-1.328-0.836-1.666c-0.427-0.339-1.068-0.508-1.922-0.508c-0.882,0-1.572,0.182-2.071,0.544
		c-0.321,0.232-0.482,0.543-0.482,0.933c0,0.355,0.15,0.66,0.451,0.913c0.383,0.321,1.313,0.656,2.789,1.004
		c1.477,0.35,2.568,0.71,3.276,1.082c0.707,0.373,1.261,0.882,1.661,1.528c0.399,0.646,0.6,1.444,0.6,2.394
		c0,0.861-0.239,1.669-0.718,2.42c-0.479,0.753-1.155,1.312-2.03,1.677c-0.875,0.366-1.965,0.549-3.271,0.549
		c-1.9,0-3.36-0.439-4.378-1.317C37.981,331.244,37.373,329.965,37.175,328.283z"/>
	<path fill="#BCBEC0" d="M51.951,333.174v-15.032h11.146v2.543h-8.111v3.333h7.547v2.532h-7.547v4.091h8.398v2.533H51.951z"/>
	<path fill="#BCBEC0" d="M65.999,333.174v-15.032h3.035v6.675l6.132-6.675h4.081l-5.66,5.854l5.968,9.178h-3.927l-4.132-7.055
		l-2.461,2.512v4.543H65.999z"/>
	<path fill="#BCBEC0" d="M80.508,325.75c0-1.531,0.229-2.816,0.687-3.855c0.342-0.766,0.808-1.452,1.399-2.061
		s1.239-1.06,1.943-1.354c0.937-0.396,2.017-0.596,3.24-0.596c2.215,0,3.987,0.688,5.316,2.062s1.995,3.285,1.995,5.731
		c0,2.428-0.66,4.326-1.979,5.696c-1.319,1.371-3.083,2.056-5.291,2.056c-2.235,0-4.013-0.682-5.332-2.045
		C81.167,330.021,80.508,328.143,80.508,325.75z M83.635,325.647c0,1.702,0.393,2.992,1.179,3.871
		c0.786,0.878,1.784,1.317,2.994,1.317s2.203-0.436,2.979-1.308c0.775-0.871,1.164-2.179,1.164-3.922
		c0-1.723-0.378-3.008-1.133-3.855s-1.758-1.271-3.009-1.271s-2.259,0.429-3.025,1.287
		C84.018,322.624,83.635,323.918,83.635,325.647z"/>
	<path fill="#BCBEC0" d="M97.54,333.174v-14.909h3.035v12.376h7.546v2.533H97.54z"/>
	<path fill="#BCBEC0" d="M123.842,333.174h-3.303l-1.313-3.414h-6.008l-1.241,3.414h-3.22l5.855-15.032h3.209L123.842,333.174z
		 M118.253,327.227l-2.071-5.578l-2.03,5.578H118.253z"/>
	<path fill="#BCBEC0" d="M125.461,333.174v-15.032h3.035v5.917h5.947v-5.917h3.035v15.032h-3.035v-6.572h-5.947v6.572H125.461z"/>
	<path fill="#BCBEC0" d="M149.835,333.174v-12.489h-4.461v-2.543h11.945v2.543h-4.449v12.489H149.835z"/>
	<path fill="#BCBEC0" d="M159.186,333.174v-15.032h3.035v15.032H159.186z"/>
	<path fill="#BCBEC0" d="M165.144,333.174v-15.032h2.953l6.152,10.038v-10.038h2.82v15.032h-3.046l-6.06-9.803v9.803H165.144z"/>
	<path fill="#BCBEC0" d="M187.271,327.646v-2.532h6.541v5.988c-0.635,0.615-1.557,1.157-2.763,1.625
		c-1.207,0.469-2.429,0.702-3.666,0.702c-1.572,0-2.942-0.329-4.112-0.989c-1.168-0.659-2.047-1.603-2.635-2.83
		c-0.588-1.227-0.882-2.562-0.882-4.004c0-1.565,0.328-2.956,0.984-4.173s1.616-2.15,2.882-2.8c0.963-0.499,2.163-0.749,3.599-0.749
		c1.866,0,3.324,0.392,4.373,1.175c1.05,0.782,1.725,1.864,2.025,3.245l-3.015,0.564c-0.212-0.738-0.61-1.321-1.194-1.749
		c-0.585-0.427-1.314-0.641-2.189-0.641c-1.326,0-2.381,0.421-3.163,1.261c-0.783,0.842-1.174,2.089-1.174,3.743
		c0,1.784,0.396,3.122,1.189,4.015c0.792,0.892,1.831,1.338,3.117,1.338c0.635,0,1.272-0.125,1.912-0.374
		c0.639-0.25,1.188-0.552,1.646-0.907v-1.908H187.271z"/>
	<path fill="#BCBEC0" d="M203.606,327.646v-2.532h6.541v5.988c-0.635,0.615-1.557,1.157-2.763,1.625
		c-1.207,0.469-2.429,0.702-3.666,0.702c-1.572,0-2.942-0.329-4.112-0.989c-1.168-0.659-2.047-1.603-2.635-2.83
		c-0.588-1.227-0.882-2.562-0.882-4.004c0-1.565,0.328-2.956,0.984-4.173s1.616-2.15,2.882-2.8c0.963-0.499,2.163-0.749,3.599-0.749
		c1.866,0,3.324,0.392,4.373,1.175c1.05,0.782,1.725,1.864,2.025,3.245l-3.015,0.564c-0.212-0.738-0.61-1.321-1.194-1.749
		c-0.585-0.427-1.314-0.641-2.189-0.641c-1.326,0-2.381,0.421-3.163,1.261c-0.783,0.842-1.174,2.089-1.174,3.743
		c0,1.784,0.396,3.122,1.189,4.015c0.792,0.892,1.831,1.338,3.117,1.338c0.635,0,1.272-0.125,1.912-0.374
		c0.639-0.25,1.188-0.552,1.646-0.907v-1.908H203.606z"/>
	<path fill="#BCBEC0" d="M212.855,333.174v-15.032h3.035v15.032H212.855z"/>
	<path fill="#BCBEC0" d="M12.75,358.374v-12.489H8.29v-2.543h11.946v2.543h-4.45v12.489H12.75z"/>
	<path fill="#BCBEC0" d="M22.194,358.374v-15.032H33.34v2.543h-8.111v3.333h7.547v2.532h-7.547v4.091h8.398v2.533H22.194z"/>
	<path fill="#BCBEC0" d="M36.242,358.374v-15.032h3.035v6.675l6.132-6.675h4.081l-5.66,5.854l5.968,9.178H45.87l-4.132-7.055
		l-2.461,2.512v4.543H36.242z"/>
	<path fill="#BCBEC0" d="M51.397,358.374v-15.032h2.953l6.152,10.038v-10.038h2.82v15.032h-3.045l-6.06-9.803v9.803H51.397z"/>
	<path fill="#BCBEC0" d="M65.917,350.95c0-1.531,0.229-2.816,0.687-3.855c0.342-0.766,0.808-1.452,1.399-2.061
		s1.239-1.06,1.943-1.354c0.937-0.396,2.017-0.596,3.24-0.596c2.215,0,3.987,0.688,5.316,2.062s1.995,3.285,1.995,5.731
		c0,2.428-0.66,4.326-1.979,5.696c-1.319,1.371-3.083,2.056-5.291,2.056c-2.235,0-4.013-0.682-5.332-2.045
		C66.576,355.221,65.917,353.343,65.917,350.95z M69.044,350.848c0,1.702,0.393,2.992,1.179,3.871
		c0.786,0.878,1.784,1.317,2.994,1.317s2.203-0.436,2.979-1.308c0.775-0.871,1.164-2.179,1.164-3.922
		c0-1.723-0.378-3.008-1.133-3.855s-1.758-1.271-3.009-1.271s-2.259,0.429-3.025,1.287
		C69.427,347.824,69.044,349.118,69.044,350.848z"/>
	<path fill="#BCBEC0" d="M82.948,358.374v-14.909h3.035v12.376h7.547v2.533H82.948z"/>
	<path fill="#BCBEC0" d="M95.079,350.95c0-1.531,0.229-2.816,0.687-3.855c0.342-0.766,0.808-1.452,1.399-2.061
		s1.239-1.06,1.943-1.354c0.937-0.396,2.017-0.596,3.24-0.596c2.215,0,3.987,0.688,5.316,2.062c1.33,1.374,1.995,3.285,1.995,5.731
		c0,2.428-0.66,4.326-1.979,5.696c-1.319,1.371-3.083,2.056-5.291,2.056c-2.235,0-4.013-0.682-5.332-2.045
		C95.738,355.221,95.079,353.343,95.079,350.95z M98.206,350.848c0,1.702,0.393,2.992,1.179,3.871
		c0.786,0.878,1.785,1.317,2.994,1.317c1.211,0,2.203-0.436,2.979-1.308c0.775-0.871,1.163-2.179,1.163-3.922
		c0-1.723-0.377-3.008-1.133-3.855c-0.755-0.848-1.758-1.271-3.01-1.271c-1.25,0-2.259,0.429-3.024,1.287
		C98.589,347.824,98.206,349.118,98.206,350.848z"/>
	<path fill="#BCBEC0" d="M119.021,352.847v-2.532h6.541v5.988c-0.635,0.615-1.557,1.157-2.763,1.625
		c-1.207,0.469-2.429,0.702-3.666,0.702c-1.572,0-2.942-0.329-4.112-0.989c-1.168-0.659-2.047-1.603-2.635-2.83
		c-0.588-1.227-0.882-2.562-0.882-4.004c0-1.565,0.328-2.956,0.984-4.173s1.616-2.15,2.882-2.8c0.963-0.499,2.163-0.749,3.599-0.749
		c1.866,0,3.324,0.392,4.373,1.175c1.05,0.782,1.725,1.864,2.025,3.245l-3.015,0.564c-0.212-0.738-0.61-1.321-1.194-1.749
		c-0.585-0.427-1.314-0.641-2.189-0.641c-1.326,0-2.381,0.421-3.163,1.261c-0.783,0.842-1.174,2.089-1.174,3.743
		c0,1.784,0.396,3.122,1.189,4.015c0.792,0.892,1.831,1.338,3.117,1.338c0.635,0,1.272-0.125,1.912-0.374
		c0.639-0.25,1.188-0.552,1.646-0.907v-1.908H119.021z"/>
	<path fill="#BCBEC0" d="M128.271,358.374v-15.032h3.035v15.032H128.271z"/>
	<path fill="#BCBEC0" d="M140.042,343.342h6.009c1.189,0,2.076,0.05,2.661,0.148c0.584,0.1,1.107,0.307,1.568,0.62
		c0.462,0.315,0.847,0.733,1.153,1.257c0.309,0.522,0.462,1.109,0.462,1.759c0,0.704-0.189,1.35-0.569,1.938
		c-0.379,0.588-0.894,1.029-1.543,1.322c0.916,0.268,1.62,0.722,2.112,1.364s0.738,1.398,0.738,2.267
		c0,0.684-0.159,1.348-0.477,1.994c-0.318,0.646-0.752,1.162-1.303,1.548c-0.55,0.387-1.229,0.624-2.035,0.713
		c-0.506,0.055-1.727,0.089-3.661,0.103h-5.116V343.342z M143.077,345.844v3.476h1.989c1.183,0,1.918-0.017,2.205-0.051
		c0.519-0.062,0.928-0.241,1.225-0.538c0.298-0.298,0.446-0.688,0.446-1.175c0-0.464-0.128-0.842-0.385-1.133
		c-0.256-0.29-0.638-0.467-1.144-0.527c-0.301-0.034-1.165-0.052-2.594-0.052H143.077z M143.077,351.821v4.02h2.81
		c1.094,0,1.787-0.03,2.082-0.092c0.451-0.082,0.818-0.282,1.102-0.6c0.284-0.318,0.426-0.744,0.426-1.277
		c0-0.451-0.109-0.833-0.328-1.148c-0.219-0.313-0.535-0.543-0.948-0.687c-0.414-0.144-1.312-0.216-2.692-0.216H143.077z"/>
	<path fill="#BCBEC0" d="M168.754,358.374h-3.303l-1.313-3.414h-6.008l-1.241,3.414h-3.22l5.855-15.032h3.209L168.754,358.374z
		 M163.165,352.427l-2.071-5.578l-2.03,5.578H163.165z"/>
	<path fill="#BCBEC0" d="M170.394,358.374v-15.032h2.953l6.152,10.038v-10.038h2.82v15.032h-3.046l-6.06-9.803v9.803H170.394z"/>
	<path fill="#BCBEC0" d="M185.518,343.342h5.547c1.252,0,2.205,0.096,2.861,0.287c0.882,0.26,1.637,0.722,2.266,1.384
		c0.629,0.664,1.107,1.476,1.436,2.436c0.328,0.961,0.492,2.146,0.492,3.553c0,1.238-0.153,2.305-0.461,3.199
		c-0.376,1.095-0.912,1.979-1.609,2.656c-0.527,0.513-1.238,0.912-2.133,1.199c-0.671,0.213-1.566,0.318-2.688,0.318h-5.711V343.342
		z M188.553,345.885v9.956h2.266c0.848,0,1.46-0.047,1.836-0.143c0.492-0.123,0.9-0.332,1.226-0.626
		c0.324-0.294,0.589-0.777,0.794-1.451c0.205-0.673,0.309-1.591,0.309-2.753s-0.104-2.054-0.309-2.676s-0.492-1.107-0.861-1.457
		c-0.369-0.348-0.837-0.584-1.404-0.707c-0.424-0.096-1.255-0.144-2.492-0.144H188.553z"/>
	<path fill="#BCBEC0" d="M200.674,343.342h3.035v8.142c0,1.292,0.037,2.13,0.112,2.512c0.13,0.615,0.439,1.109,0.928,1.482
		c0.489,0.372,1.157,0.559,2.005,0.559c0.861,0,1.511-0.176,1.948-0.528c0.438-0.352,0.7-0.784,0.79-1.297
		c0.088-0.513,0.133-1.364,0.133-2.554v-8.315h3.035v7.896c0,1.805-0.082,3.08-0.246,3.824c-0.164,0.746-0.467,1.375-0.907,1.887
		c-0.441,0.514-1.03,0.922-1.769,1.226c-0.738,0.305-1.703,0.456-2.893,0.456c-1.436,0-2.523-0.165-3.266-0.497
		c-0.741-0.331-1.328-0.762-1.758-1.292c-0.432-0.529-0.715-1.085-0.852-1.666c-0.198-0.861-0.297-2.133-0.297-3.814V343.342z"/>
	<path fill="#BCBEC0" d="M215.891,358.374v-15.032h2.953l6.152,10.038v-10.038h2.82v15.032h-3.046l-6.06-9.803v9.803H215.891z"/>
	<path fill="#BCBEC0" d="M238.019,352.847v-2.532h6.541v5.988c-0.635,0.615-1.557,1.157-2.763,1.625
		c-1.207,0.469-2.429,0.702-3.666,0.702c-1.572,0-2.942-0.329-4.112-0.989c-1.168-0.659-2.047-1.603-2.635-2.83
		c-0.588-1.227-0.882-2.562-0.882-4.004c0-1.565,0.328-2.956,0.984-4.173s1.616-2.15,2.882-2.8c0.963-0.499,2.163-0.749,3.599-0.749
		c1.866,0,3.324,0.392,4.373,1.175c1.05,0.782,1.725,1.864,2.025,3.245l-3.015,0.564c-0.212-0.738-0.61-1.321-1.194-1.749
		c-0.585-0.427-1.314-0.641-2.189-0.641c-1.326,0-2.381,0.421-3.163,1.261c-0.783,0.842-1.174,2.089-1.174,3.743
		c0,1.784,0.396,3.122,1.189,4.015c0.792,0.892,1.831,1.338,3.117,1.338c0.635,0,1.272-0.125,1.912-0.374
		c0.639-0.25,1.188-0.552,1.646-0.907v-1.908H238.019z"/>
</g>
</svg>
