<?xml version="1.0" encoding="utf-8"?>
<!-- Generator: Adobe Illustrator 16.0.0, SVG Export Plug-In . SVG Version: 6.00 Build 0)  -->
<!DOCTYPE svg PUBLIC "-//W3C//DTD SVG 1.1//EN" "http://www.w3.org/Graphics/SVG/1.1/DTD/svg11.dtd">
<svg version="1.1" id="Layer_1" xmlns="http://www.w3.org/2000/svg" xmlns:xlink="http://www.w3.org/1999/xlink" x="0px" y="0px"
	 width="419.18px" height="83.647px" viewBox="0.667 0.667 419.18 83.647" enable-background="new 0.667 0.667 419.18 83.647"
	 xml:space="preserve">
<g display="none">
	<path display="inline" d="M306.611,138.603c0,3.153-0.604,6.013-1.813,8.569c-1.209,2.56-2.929,4.75-5.152,6.572
		c-2.228,1.82-4.916,3.23-8.069,4.23c-3.154,0.998-6.678,1.498-10.568,1.498c-2.067,0-4.196-0.123-6.388-0.367
		c-2.189-0.246-4.354-0.588-6.493-1.023c-2.14-0.438-4.188-0.975-6.15-1.604s-3.731-1.351-5.312-2.156l3.786-11.354
		c1.717,0.563,3.391,1.076,5.021,1.553c1.63,0.473,3.251,0.885,4.862,1.232c1.611,0.354,3.232,0.623,4.862,0.813
		c1.631,0.192,3.305,0.291,5.021,0.291c3.295,0,5.837-0.69,7.623-2.078c1.788-1.383,2.683-3.338,2.683-5.86
		c0-1.262-0.298-2.398-0.895-3.418c-0.597-1.017-1.455-1.937-2.575-2.76c-1.122-0.824-2.473-1.587-4.05-2.287
		c-1.577-0.701-3.33-1.367-5.257-1.998c-3.227-1.086-6.136-2.295-8.729-3.627c-2.595-1.332-4.803-2.867-6.624-4.603
		c-1.823-1.733-3.232-3.697-4.231-5.89c-0.999-2.188-1.499-4.67-1.499-7.438c0-3.153,0.604-6.021,1.813-8.596
		s2.926-4.785,5.151-6.625c2.227-1.84,4.907-3.268,8.044-4.285c3.138-1.016,6.651-1.524,10.542-1.524c2.174,0,4.338,0.168,6.493,0.5
		c2.154,0.334,4.214,0.754,6.179,1.262c1.962,0.509,3.768,1.078,5.415,1.709c1.646,0.631,3.05,1.263,4.206,1.894l-2.944,11.408
		c-1.753-0.596-3.4-1.146-4.941-1.656c-1.542-0.506-3.05-0.945-4.521-1.313c-1.473-0.37-2.943-0.658-4.416-0.868
		c-1.474-0.21-2.997-0.315-4.574-0.315c-3.47,0-6.056,0.736-7.755,2.209c-1.7,1.473-2.55,3.365-2.55,5.68
		c0,1.121,0.21,2.164,0.631,3.127c0.42,0.965,1.086,1.867,1.998,2.709c0.911,0.841,2.085,1.621,3.521,2.34
		c1.438,0.72,3.188,1.41,5.258,2.076c3.995,1.263,7.413,2.609,10.253,4.049c2.839,1.438,5.15,3.031,6.938,4.783
		c1.787,1.754,3.104,3.707,3.943,5.861C306.19,133.478,306.611,135.903,306.611,138.603z"/>
	<path display="inline" d="M348.515,98.485v59.938h-15.721V98.485H312.5V86.92h56.256v11.565H348.515z"/>
	<path display="inline" d="M408.661,98.485v59.938h-15.721V98.485h-20.294V86.92h56.256v11.565H408.661z"/>
	<path display="inline" d="M464.71,86.92h24.553c4.101,0,7.755,0.455,10.962,1.367c3.207,0.911,5.933,2.207,8.176,3.891
		c2.243,1.683,3.951,3.697,5.126,6.046c1.174,2.351,1.762,4.961,1.762,7.834c0,2.032-0.271,3.873-0.813,5.521
		s-1.229,3.11-2.05,4.391c-0.824,1.279-1.729,2.393-2.708,3.34c-0.981,0.945-1.93,1.732-2.839,2.363
		c4.238,1.193,7.533,3.184,9.884,5.969c2.349,2.785,3.521,6.318,3.521,10.596c0,3.016-0.631,5.766-1.894,8.254
		c-1.263,2.49-3.075,4.619-5.441,6.389c-2.364,1.771-5.229,3.138-8.596,4.101c-3.365,0.965-7.15,1.446-11.356,1.446h-28.284
		L464.71,86.92L464.71,86.92z M480.429,99.013v17.612h16.299c0.701-0.979,1.349-2.242,1.945-3.785
		c0.596-1.543,0.894-3.313,0.894-5.313c0-2.803-0.955-4.924-2.865-6.359c-1.909-1.438-4.671-2.155-8.278-2.155H480.429z
		 M480.429,127.456v18.875h11.409c1.963,0,3.75-0.186,5.361-0.553s2.987-0.92,4.127-1.654c1.141-0.735,2.024-1.686,2.655-2.84
		c0.631-1.156,0.946-2.523,0.946-4.102c0-3.189-0.981-5.607-2.944-7.258c-1.964-1.646-4.854-2.471-8.675-2.471L480.429,127.456
		L480.429,127.456z"/>
	<path display="inline" d="M574.277,143.493h-25.813l-4.838,14.932h-15.456l24.656-71.504h17.087l24.711,71.504h-15.455
		L574.277,143.493z M552.195,131.924h18.352l-9.201-28.18L552.195,131.924z"/>
	<path display="inline" d="M605.034,86.92h15.667v0.054l0.055-0.054l30.547,48.211V86.92h15.721v71.504h-15.721l-30.602-48.317
		v48.317h-15.667V86.92z"/>
	<path display="inline" d="M682.742,86.92h24.027c5.396,0,10.286,0.851,14.669,2.549c4.381,1.701,8.113,4.103,11.198,7.203
		c3.084,3.103,5.459,6.845,7.124,11.226c1.664,4.384,2.497,9.271,2.497,14.67c0,5.397-0.833,10.298-2.497,14.695
		c-1.665,4.397-4.04,8.166-7.124,11.303c-3.085,3.14-6.817,5.565-11.198,7.283c-4.383,1.717-9.272,2.575-14.669,2.575h-24.027V86.92
		z M698.464,98.381v48.581h7.148c3.084,0,5.896-0.475,8.438-1.418c2.541-0.946,4.706-2.42,6.492-4.418
		c1.788-1.998,3.173-4.528,4.152-7.598c0.981-3.066,1.475-6.721,1.475-10.963c0-4.238-0.491-7.887-1.475-10.936
		c-0.979-3.051-2.364-5.557-4.152-7.521c-1.786-1.963-3.951-3.407-6.492-4.338c-2.542-0.929-5.354-1.394-8.438-1.394h-7.148V98.381z
		"/>
	<path display="inline" d="M799.198,86.92h15.668V135.5c0,3.818-0.719,7.211-2.153,10.174c-1.438,2.964-3.472,5.468-6.101,7.519
		c-2.629,2.052-5.773,3.611-9.438,4.681c-3.664,1.068-7.723,1.604-12.172,1.604c-4.416,0-8.447-0.543-12.095-1.629
		c-3.646-1.086-6.771-2.664-9.385-4.73c-2.612-2.068-4.636-4.604-6.072-7.6c-1.438-2.996-2.153-6.404-2.153-10.227V86.92h15.72
		v48.37c0,2.068,0.342,3.898,1.023,5.494c0.685,1.596,1.647,2.928,2.894,3.994c1.244,1.07,2.716,1.875,4.417,2.422
		c1.699,0.543,3.583,0.813,5.65,0.813c2.104,0,4.021-0.271,5.758-0.813c1.733-0.547,3.232-1.352,4.496-2.422
		c1.262-1.066,2.232-2.398,2.918-3.994c0.684-1.596,1.022-3.426,1.022-5.494L799.198,86.92L799.198,86.92z"/>
	<path display="inline" d="M830.589,86.92h15.667v0.054l0.053-0.054l30.547,48.211V86.92h15.721v71.504h-15.721l-30.6-48.317v48.317
		h-15.667V86.92z"/>
	<path display="inline" d="M938.578,119.308h27.604v34.909c-3.715,1.685-7.563,2.979-11.54,3.892
		c-3.979,0.912-8.316,1.367-13.013,1.367c-5.573,0-10.577-0.979-15.013-2.942c-4.435-1.964-8.185-4.627-11.251-7.992
		c-3.065-3.365-5.416-7.273-7.046-11.726c-1.629-4.45-2.442-9.166-2.442-14.144c0-5.223,0.885-10.077,2.653-14.563
		c1.771-4.485,4.303-8.377,7.599-11.672c3.295-3.295,7.309-5.879,12.04-7.756c4.73-1.873,10.076-2.813,16.035-2.813
		c3.854,0,7.31,0.334,10.356,1c3.05,0.666,5.679,1.49,7.887,2.471l-2.261,10.568c-1.998-0.666-4.303-1.262-6.914-1.788
		c-2.611-0.526-5.477-0.788-8.596-0.788c-3.683,0-6.959,0.57-9.832,1.708c-2.875,1.14-5.293,2.786-7.256,4.942
		s-3.462,4.811-4.495,7.965c-1.034,3.154-1.551,6.729-1.551,10.727c0,3.609,0.473,6.957,1.419,10.041
		c0.946,3.086,2.331,5.759,4.152,8.021c1.821,2.261,4.065,4.039,6.729,5.336c2.663,1.298,5.713,1.945,9.147,1.945
		c1.576,0,3.103-0.089,4.573-0.265c1.474-0.174,2.873-0.473,4.206-0.893v-16.09h-13.197v-11.461L938.578,119.308L938.578,119.308z"
		/>
</g>
<g>
	<path fill="#FFFFFF" d="M57.75,13.437c-17.613-0.845-24.784,7.061-25.964,7.859c-1.18-0.798-8.351-8.703-25.964-7.858
		c-0.017,0.001-3.631,3.748-3.631,3.748c22.1-0.194,29.595,7.819,29.595,7.819s7.496-8.013,29.594-7.819
		C61.381,17.185,57.767,13.438,57.75,13.437z"/>
	<path fill="#FFFFFF" d="M53.281,8.435C38.699,7.736,32.762,14.28,31.786,14.94c-0.977-0.66-6.915-7.205-21.495-6.505
		c-0.013,0-3.005,3.103-3.005,3.103c18.295-0.16,24.5,6.473,24.5,6.473s6.205-6.633,24.5-6.473
		C56.286,11.537,53.294,8.435,53.281,8.435z"/>
	<path fill="#FFFFFF" d="M49.207,3.713C37.39,3.146,32.576,8.451,31.785,8.986c-0.792-0.535-5.603-5.84-17.42-5.273
		c-0.011,0-2.436,2.515-2.436,2.515c14.828-0.13,19.856,5.246,19.856,5.246s5.028-5.376,19.857-5.246
		C51.642,6.227,49.217,3.713,49.207,3.713z"/>
	<circle fill="#FFFFFF" cx="31.786" cy="39.878" r="9.563"/>
	<path fill="#FFFFFF" d="M49.186,25.658v18.371c0,5.171-3.013,9.363-6.729,9.363H31.868h-0.164h-10.59
		c-3.716,0-6.728-4.19-6.728-9.363V25.658c0-2.885-5.782-8.08-12.277-7.302v32.077c0,5.889,5.153,10.661,11.512,10.661h18.083h0.164
		h18.083c6.358,0,11.512-4.773,11.512-10.661V18.355C54.967,17.577,49.186,22.772,49.186,25.658z"/>
</g>
<g>
	<path fill="#FFFFFF" d="M11.997,73.736c0.765,0.392,1.939,0.784,3.152,0.784c1.307,0,1.997-0.541,1.997-1.362
		c0-0.783-0.597-1.231-2.108-1.772c-2.089-0.727-3.451-1.884-3.451-3.711c0-2.146,1.791-3.787,4.757-3.787
		c1.418,0,2.462,0.298,3.208,0.634l-0.634,2.294c-0.504-0.243-1.4-0.597-2.63-0.597c-1.231,0-1.828,0.56-1.828,1.212
		c0,0.803,0.708,1.157,2.332,1.772c2.22,0.821,3.264,1.978,3.264,3.75c0,2.107-1.623,3.898-5.074,3.898
		c-1.436,0-2.854-0.374-3.563-0.765L11.997,73.736z"/>
	<path fill="#FFFFFF" d="M24.401,66.479h-3.376v-2.388h9.662v2.388h-3.432v10.185h-2.854V66.479z"/>
	<path fill="#FFFFFF" d="M35.031,66.479h-3.376v-2.388h9.663v2.388h-3.433v10.185h-2.854L35.031,66.479L35.031,66.479z"/>
	<path fill="#FFFFFF" d="M42.826,64.26c0.747-0.15,2.258-0.261,3.675-0.261c1.735,0,2.798,0.168,3.712,0.709
		c0.876,0.466,1.511,1.324,1.511,2.462c0,1.119-0.652,2.164-2.071,2.686v0.038c1.437,0.392,2.5,1.474,2.5,3.096
		c0,1.138-0.522,2.034-1.307,2.667c-0.913,0.728-2.443,1.139-4.943,1.139c-1.399,0-2.443-0.094-3.078-0.187L42.826,64.26
		L42.826,64.26z M45.644,69.072h0.933c1.492,0,2.294-0.616,2.294-1.548c0-0.951-0.727-1.455-2.015-1.455
		c-0.616,0-0.97,0.037-1.212,0.074L45.644,69.072L45.644,69.072z M45.644,74.65c0.28,0.038,0.616,0.038,1.101,0.038
		c1.287,0,2.425-0.485,2.425-1.81c0-1.269-1.138-1.772-2.556-1.772h-0.97V74.65L45.644,74.65z"/>
</g>
<g>
	<path fill="#FFFFFF" d="M75.68,20.126c1.611,0,2.747,0.163,3.407,0.487c0.66,0.325,0.99,0.722,0.99,1.192
		c0,0.246-0.05,0.509-0.15,0.789c-0.101,0.28-0.274,0.543-0.521,0.789c-0.246-0.179-0.66-0.364-1.242-0.554
		c-0.582-0.189-1.265-0.285-2.048-0.285c-1.007,0-1.802,0.207-2.383,0.621c-0.583,0.415-0.873,0.979-0.873,1.695
		c0,0.627,0.128,1.187,0.386,1.678c0.257,0.493,0.644,1.041,1.158,1.645l3.626,4.129c0.425,0.515,0.783,1.002,1.074,1.46
		c0.29,0.459,0.525,0.918,0.704,1.376c0.18,0.459,0.303,0.918,0.37,1.376c0.066,0.459,0.101,0.946,0.101,1.46
		c0,0.851-0.101,1.657-0.303,2.417c-0.201,0.761-0.531,1.433-0.99,2.014c-0.459,0.583-1.074,1.041-1.846,1.376
		c-0.772,0.336-1.729,0.504-2.87,0.504c-1.522,0-2.636-0.218-3.341-0.655s-1.058-0.89-1.058-1.36c0-0.269,0.056-0.582,0.168-0.94
		c0.112-0.357,0.291-0.693,0.537-1.007c0.358,0.313,0.822,0.587,1.394,0.822c0.57,0.235,1.259,0.353,2.064,0.353
		c1.208,0,2.059-0.313,2.551-0.94c0.492-0.626,0.739-1.455,0.739-2.484c0-0.761-0.141-1.466-0.42-2.115
		c-0.28-0.649-0.789-1.398-1.527-2.249l-3.391-3.928c-0.761-0.94-1.298-1.784-1.611-2.534s-0.47-1.516-0.47-2.3
		c0-1.41,0.486-2.568,1.46-3.475C72.34,20.579,73.778,20.126,75.68,20.126z"/>
	<path fill="#FFFFFF" d="M88.033,26.84c2.842,0,4.264,1.802,4.264,5.405c0,0.739-0.028,1.5-0.084,2.283
		c-0.057,0.784-0.151,1.477-0.285,2.082c-0.583,0.112-1.198,0.201-1.847,0.269c-0.649,0.067-1.292,0.123-1.931,0.167
		c-0.638,0.045-1.236,0.073-1.796,0.084c-0.56,0.012-1.04,0.017-1.443,0.017c0.022,0.895,0.106,1.634,0.252,2.215
		c0.146,0.583,0.341,1.041,0.588,1.376c0.245,0.335,0.559,0.571,0.939,0.705c0.38,0.134,0.828,0.201,1.343,0.201
		c0.672,0,1.331-0.095,1.98-0.285c0.649-0.19,1.265-0.442,1.847-0.755c0.089,0.247,0.151,0.549,0.185,0.906
		c0.033,0.358,0.05,0.671,0.05,0.94s-0.123,0.515-0.369,0.739s-0.582,0.419-1.007,0.587s-0.918,0.296-1.477,0.386
		c-0.561,0.089-1.153,0.134-1.779,0.134c-0.784,0-1.506-0.101-2.166-0.302c-0.66-0.202-1.225-0.587-1.694-1.158
		c-0.471-0.571-0.84-1.371-1.108-2.4c-0.269-1.029-0.402-2.361-0.402-3.995c0-2.104,0.173-3.788,0.52-5.052
		c0.347-1.264,0.795-2.232,1.343-2.904c0.549-0.671,1.181-1.113,1.897-1.326C86.568,26.946,87.295,26.84,88.033,26.84z
		 M87.732,29.223c-0.336,0-0.661,0.084-0.974,0.252c-0.313,0.168-0.6,0.47-0.856,0.906c-0.257,0.437-0.47,1.019-0.638,1.746
		c-0.168,0.728-0.274,1.662-0.318,2.803c0.313,0,0.671,0,1.074,0c0.402,0,0.811-0.017,1.225-0.05s0.817-0.072,1.209-0.118
		c0.391-0.044,0.732-0.112,1.023-0.201c0.067-0.313,0.112-0.649,0.135-1.007c0.021-0.357,0.033-0.693,0.033-1.007
		c-0.022-1.208-0.168-2.064-0.437-2.568C88.94,29.475,88.448,29.223,87.732,29.223z"/>
	<path fill="#FFFFFF" d="M94.713,20.529c0-0.313,0.039-0.554,0.118-0.722c0.078-0.168,0.218-0.291,0.419-0.369
		c0.202-0.078,0.481-0.123,0.84-0.134c0.357-0.011,0.816-0.017,1.376-0.017v9.098c0.56-0.47,1.22-0.845,1.98-1.125
		s1.499-0.42,2.216-0.42c0.56,0,1.019,0.079,1.376,0.235c0.358,0.157,0.649,0.37,0.873,0.638s0.381,0.576,0.47,0.923
		c0.09,0.347,0.135,0.711,0.135,1.091c0,0.694-0.106,1.326-0.319,1.896s-0.465,1.074-0.755,1.511
		c-0.291,0.437-0.6,0.806-0.923,1.108c-0.325,0.302-0.588,0.532-0.789,0.688c0.806,0.358,1.527,1.007,2.165,1.947
		s1.023,2.182,1.158,3.726c0.021,0.179,0.033,0.358,0.033,0.537c0,0.179,0,0.369,0,0.571c0,0.537-0.033,1.107-0.101,1.712
		c-0.022,0.134-0.05,0.241-0.084,0.319c-0.033,0.079-0.15,0.134-0.353,0.168c-0.201,0.034-0.503,0.05-0.906,0.05
		c-0.402,0-0.985,0-1.745,0c0.044-0.38,0.078-0.75,0.101-1.108c0.021-0.357,0.033-0.705,0.033-1.041c0-0.38-0.017-0.727-0.05-1.041
		c-0.034-0.313-0.073-0.626-0.118-0.94c-0.201-1.343-0.576-2.288-1.124-2.837c-0.549-0.548-1.147-0.755-1.796-0.621
		c-0.157,0.045-0.319,0.101-0.487,0.168c-0.168,0.067-0.33,0.134-0.486,0.202c-0.18,0.089-0.348,0.179-0.504,0.269v6.412
		c0,0.134-0.012,0.241-0.033,0.319c-0.022,0.079-0.118,0.134-0.286,0.168c-0.167,0.034-0.441,0.05-0.822,0.05s-0.918,0-1.611,0
		V20.529z M101.494,30.667c0-0.917-0.414-1.376-1.242-1.376c-0.447,0-0.912,0.134-1.393,0.403c-0.481,0.269-0.946,0.671-1.394,1.208
		v4.163c1.163-0.47,2.126-1.058,2.887-1.762C101.114,32.597,101.494,31.719,101.494,30.667z"/>
	<path fill="#FFFFFF" d="M106.531,35.568c0-3.066,0.486-5.287,1.46-6.664c0.974-1.376,2.345-2.064,4.112-2.064
		c0.873,0,1.64,0.129,2.3,0.386s1.203,0.716,1.628,1.376s0.744,1.544,0.957,2.652c0.212,1.108,0.319,2.512,0.319,4.213
		c0,3.134-0.471,5.388-1.41,6.764c-0.94,1.376-2.306,2.065-4.096,2.065c-0.873,0-1.634-0.101-2.283-0.302
		c-0.649-0.202-1.197-0.61-1.645-1.226c-0.448-0.615-0.783-1.499-1.007-2.652C106.642,38.964,106.531,37.448,106.531,35.568z
		 M109.485,35.635c0,1.388,0.051,2.496,0.151,3.323c0.101,0.828,0.252,1.466,0.453,1.914c0.201,0.448,0.453,0.744,0.755,0.89
		c0.303,0.146,0.644,0.218,1.024,0.218c0.357,0,0.688-0.089,0.99-0.269c0.302-0.179,0.564-0.515,0.789-1.007
		c0.223-0.492,0.396-1.152,0.52-1.98c0.123-0.828,0.185-1.902,0.185-3.223c0-1.343-0.05-2.422-0.15-3.24
		c-0.101-0.816-0.247-1.449-0.437-1.896c-0.19-0.447-0.432-0.75-0.722-0.906c-0.291-0.156-0.638-0.235-1.041-0.235
		c-0.381,0-0.722,0.09-1.023,0.269c-0.303,0.18-0.565,0.504-0.789,0.974c-0.224,0.47-0.397,1.125-0.521,1.964
		S109.485,34.337,109.485,35.635z"/>
	<path fill="#FFFFFF" d="M122.342,43.423c0,0.134-0.018,0.241-0.051,0.319c-0.033,0.079-0.134,0.134-0.302,0.168
		s-0.437,0.05-0.806,0.05s-0.89,0-1.562,0V20.529c0-0.313,0.039-0.554,0.118-0.722c0.078-0.168,0.218-0.291,0.419-0.369
		c0.202-0.078,0.481-0.123,0.84-0.134c0.357-0.011,0.806-0.017,1.343-0.017V43.423z"/>
	<path fill="#FFFFFF" d="M124.892,28.686c0-0.179,0.028-0.352,0.084-0.52s0.151-0.308,0.285-0.42
		c0.291-0.179,0.896-0.375,1.813-0.587c0.917-0.212,2.014-0.319,3.289-0.319c1.455,0,2.513,0.302,3.173,0.906
		c0.66,0.604,0.99,1.667,0.99,3.189v1.779c0,0.962,0,1.93,0,2.903c0,0.974-0.012,1.914-0.033,2.82
		c-0.022,0.906-0.046,1.762-0.067,2.568c-0.022,0.806-0.057,1.522-0.101,2.148c-0.448,0.269-1.063,0.526-1.847,0.772
		s-1.724,0.37-2.819,0.37c-0.604,0-1.198-0.045-1.779-0.134c-0.583-0.09-1.097-0.313-1.545-0.672
		c-0.447-0.357-0.806-0.878-1.074-1.561s-0.402-1.595-0.402-2.736c0-1.163,0.128-2.103,0.386-2.82
		c0.257-0.716,0.593-1.275,1.007-1.678s0.89-0.671,1.427-0.806s1.086-0.202,1.646-0.202c0.38,0,0.8,0.028,1.259,0.084
		c0.458,0.056,0.855,0.174,1.191,0.353v-2.652c0-0.783-0.179-1.31-0.537-1.578s-0.873-0.403-1.544-0.403
		c-0.851,0-1.679,0.073-2.484,0.218c-0.806,0.146-1.455,0.319-1.947,0.521c-0.156-0.269-0.257-0.542-0.302-0.822
		S124.892,28.888,124.892,28.686z M131.774,36.038c-0.224-0.112-0.481-0.19-0.771-0.235c-0.292-0.045-0.561-0.067-0.806-0.067
		c-0.336,0-0.655,0.04-0.957,0.118c-0.303,0.079-0.565,0.241-0.789,0.487s-0.402,0.587-0.537,1.023
		c-0.134,0.437-0.201,1.024-0.201,1.763c0,0.604,0.05,1.097,0.15,1.477c0.102,0.381,0.246,0.677,0.437,0.89
		c0.19,0.213,0.42,0.353,0.688,0.419c0.269,0.067,0.57,0.101,0.906,0.101c0.381,0,0.733-0.055,1.058-0.167
		c0.324-0.112,0.564-0.246,0.722-0.403c0.022-0.269,0.039-0.621,0.051-1.058c0.011-0.437,0.021-0.9,0.033-1.393
		c0.011-0.492,0.017-0.996,0.017-1.511C131.774,36.967,131.774,36.486,131.774,36.038z"/>
	<path fill="#FFFFFF" d="M137.28,20.529c0-0.313,0.033-0.554,0.101-0.722s0.201-0.291,0.403-0.369
		c0.201-0.078,0.48-0.123,0.839-0.134c0.357-0.011,0.816-0.017,1.376-0.017v8.862c0.515-0.447,1.108-0.777,1.779-0.99
		c0.672-0.212,1.331-0.319,1.98-0.319c0.716,0,1.304,0.101,1.763,0.302c0.458,0.201,0.816,0.487,1.074,0.856
		c0.257,0.369,0.431,0.834,0.521,1.393c0.089,0.56,0.134,1.187,0.134,1.88v12.152c0,0.134-0.022,0.241-0.066,0.319
		c-0.046,0.079-0.157,0.134-0.336,0.168c-0.18,0.034-0.459,0.05-0.84,0.05c-0.38,0-0.906,0-1.577,0V32.043
		c0-0.357-0.022-0.705-0.067-1.041c-0.045-0.335-0.134-0.621-0.269-0.856c-0.134-0.235-0.33-0.425-0.587-0.571
		c-0.258-0.145-0.588-0.218-0.991-0.218c-0.38,0-0.794,0.067-1.241,0.202c-0.448,0.134-0.873,0.381-1.276,0.738v13.126
		c0,0.134-0.017,0.241-0.05,0.319c-0.034,0.079-0.135,0.134-0.303,0.168s-0.437,0.05-0.806,0.05s-0.89,0-1.561,0V20.529z"/>
	<path fill="#FFFFFF" d="M161.348,23.013v20.41c0,0.134-0.017,0.241-0.05,0.319c-0.033,0.079-0.135,0.134-0.302,0.168
		c-0.168,0.034-0.437,0.05-0.806,0.05c-0.37,0-0.89,0-1.562,0V23.013h-4.565v-1.981c0-0.38,0.189-0.571,0.57-0.571h11.414v2.015
		c0,0.358-0.19,0.537-0.57,0.537H161.348z"/>
	<path fill="#FFFFFF" d="M170.11,43.423c0,0.134-0.017,0.241-0.05,0.319c-0.034,0.079-0.141,0.134-0.319,0.168
		s-0.453,0.05-0.822,0.05s-0.901,0-1.595,0V28.417c0-0.313,0.039-0.554,0.118-0.722c0.078-0.167,0.223-0.291,0.436-0.369
		c0.213-0.078,0.498-0.123,0.856-0.134c0.357-0.011,0.816-0.017,1.376-0.017V43.423z M167.358,21.838
		c0.021-0.604,0.156-1.091,0.402-1.46c0.246-0.37,0.638-0.554,1.175-0.554c0.515,0,0.873,0.146,1.074,0.437
		c0.202,0.291,0.291,0.794,0.269,1.511c0,0.694-0.129,1.231-0.386,1.611c-0.258,0.381-0.644,0.571-1.158,0.571
		c-0.448,0-0.789-0.157-1.023-0.47C167.475,23.17,167.358,22.622,167.358,21.838z"/>
	<path fill="#FFFFFF" d="M173.164,27.981c0.336-0.134,0.716-0.274,1.142-0.42c0.425-0.145,0.872-0.269,1.343-0.369
		c0.47-0.101,0.945-0.185,1.427-0.252c0.48-0.067,0.945-0.101,1.393-0.101c1.768,0,2.999,0.341,3.692,1.024
		c0.694,0.683,1.041,1.841,1.041,3.475v12.085c0,0.134-0.017,0.241-0.05,0.319c-0.034,0.079-0.141,0.134-0.319,0.168
		c-0.18,0.034-0.459,0.05-0.839,0.05c-0.381,0-0.918,0-1.611,0V32.144c0-1.074-0.124-1.83-0.37-2.266s-0.794-0.655-1.645-0.655
		c-0.358,0-0.767,0.051-1.226,0.151s-0.878,0.251-1.259,0.453v13.596c0,0.134-0.017,0.241-0.05,0.319
		c-0.034,0.079-0.141,0.134-0.319,0.168c-0.18,0.034-0.448,0.05-0.806,0.05c-0.358,0-0.873,0-1.544,0V27.981z"/>
	<path fill="#FFFFFF" d="M191.359,26.84c0.224,0,0.486,0.022,0.789,0.067c0.302,0.045,0.599,0.112,0.89,0.201h4.028
		c0.067,0.112,0.128,0.28,0.185,0.503c0.056,0.224,0.084,0.493,0.084,0.806c0,0.694-0.313,1.041-0.94,1.041
		c-0.313,0-0.716-0.056-1.208-0.168c0.38,0.381,0.688,0.873,0.923,1.477c0.235,0.604,0.353,1.321,0.353,2.148
		c0,1.791-0.42,3.217-1.259,4.28s-2.232,1.594-4.18,1.594c-0.627,0-1.13-0.044-1.511-0.134c-0.224,0.224-0.425,0.47-0.604,0.739
		c-0.18,0.269-0.269,0.515-0.269,0.738c0,0.157,0.101,0.286,0.302,0.386s0.48,0.185,0.839,0.252
		c0.358,0.067,0.777,0.134,1.259,0.201c0.481,0.067,1.002,0.134,1.562,0.202c0.671,0.112,1.275,0.251,1.813,0.419
		s1.001,0.403,1.394,0.705c0.391,0.302,0.693,0.677,0.906,1.125c0.212,0.448,0.318,1.007,0.318,1.679
		c0,0.716-0.123,1.404-0.369,2.064c-0.246,0.66-0.633,1.242-1.158,1.746c-0.525,0.503-1.197,0.906-2.014,1.208
		c-0.817,0.302-1.785,0.453-2.904,0.453s-2.03-0.106-2.735-0.319c-0.705-0.213-1.254-0.499-1.646-0.856
		c-0.392-0.358-0.654-0.75-0.788-1.175c-0.135-0.425-0.202-0.862-0.202-1.309c0-0.828,0.246-1.583,0.739-2.266
		c0.491-0.683,1.096-1.27,1.813-1.762c-0.649-0.179-1.158-0.419-1.527-0.722s-0.543-0.677-0.521-1.125
		c0.021-0.448,0.224-0.935,0.604-1.46c0.38-0.525,0.895-1.046,1.544-1.561c-0.784-0.515-1.326-1.214-1.628-2.098
		c-0.303-0.884-0.453-1.863-0.453-2.937c0-1.119,0.134-2.07,0.402-2.854c0.269-0.783,0.649-1.416,1.142-1.897
		c0.492-0.481,1.079-0.833,1.763-1.057C189.775,26.952,190.531,26.84,191.359,26.84z M190.452,43.323
		c-0.112,0-0.213-0.005-0.303-0.017c-0.089-0.011-0.19-0.028-0.302-0.05c-0.492,0.381-0.918,0.839-1.275,1.376
		c-0.358,0.537-0.537,1.085-0.537,1.645c0,0.269,0.039,0.509,0.117,0.722c0.078,0.212,0.219,0.397,0.42,0.554
		c0.201,0.156,0.486,0.28,0.855,0.37c0.369,0.089,0.845,0.134,1.427,0.134c0.604,0,1.119-0.079,1.545-0.235
		c0.425-0.157,0.777-0.364,1.057-0.621c0.28-0.257,0.487-0.537,0.621-0.839c0.135-0.302,0.202-0.599,0.202-0.89
		c0-0.381-0.063-0.694-0.185-0.94c-0.124-0.247-0.331-0.453-0.621-0.621c-0.292-0.168-0.684-0.296-1.176-0.386
		C191.806,43.435,191.191,43.368,190.452,43.323z M191.258,28.854c-0.717,0-1.326,0.308-1.83,0.923
		c-0.503,0.616-0.755,1.662-0.755,3.139c0,0.604,0.033,1.142,0.101,1.611c0.067,0.47,0.189,0.868,0.369,1.192
		c0.179,0.325,0.431,0.57,0.756,0.738c0.324,0.168,0.743,0.252,1.259,0.252c0.895,0,1.544-0.369,1.946-1.108
		c0.403-0.738,0.604-1.846,0.604-3.323c0-1.23-0.207-2.109-0.621-2.635S192.064,28.854,191.258,28.854z"/>
	<path fill="#FFFFFF" d="M204.551,26.84c0.224,0,0.486,0.022,0.789,0.067c0.302,0.045,0.599,0.112,0.89,0.201h4.028
		c0.067,0.112,0.128,0.28,0.185,0.503c0.056,0.224,0.084,0.493,0.084,0.806c0,0.694-0.313,1.041-0.94,1.041
		c-0.313,0-0.716-0.056-1.208-0.168c0.38,0.381,0.688,0.873,0.923,1.477c0.235,0.604,0.353,1.321,0.353,2.148
		c0,1.791-0.42,3.217-1.259,4.28s-2.232,1.594-4.18,1.594c-0.627,0-1.13-0.044-1.511-0.134c-0.224,0.224-0.425,0.47-0.604,0.739
		c-0.18,0.269-0.269,0.515-0.269,0.738c0,0.157,0.101,0.286,0.302,0.386s0.48,0.185,0.839,0.252
		c0.358,0.067,0.777,0.134,1.259,0.201c0.481,0.067,1.002,0.134,1.562,0.202c0.671,0.112,1.275,0.251,1.813,0.419
		s1.001,0.403,1.394,0.705c0.391,0.302,0.693,0.677,0.906,1.125c0.212,0.448,0.318,1.007,0.318,1.679
		c0,0.716-0.123,1.404-0.369,2.064c-0.246,0.66-0.633,1.242-1.158,1.746c-0.525,0.503-1.197,0.906-2.014,1.208
		c-0.817,0.302-1.785,0.453-2.904,0.453s-2.03-0.106-2.735-0.319c-0.705-0.213-1.254-0.499-1.646-0.856
		c-0.392-0.358-0.654-0.75-0.788-1.175c-0.135-0.425-0.202-0.862-0.202-1.309c0-0.828,0.246-1.583,0.739-2.266
		c0.491-0.683,1.096-1.27,1.813-1.762c-0.649-0.179-1.158-0.419-1.527-0.722s-0.543-0.677-0.521-1.125
		c0.021-0.448,0.224-0.935,0.604-1.46c0.38-0.525,0.895-1.046,1.544-1.561c-0.784-0.515-1.326-1.214-1.628-2.098
		c-0.303-0.884-0.453-1.863-0.453-2.937c0-1.119,0.134-2.07,0.402-2.854c0.269-0.783,0.649-1.416,1.142-1.897
		c0.492-0.481,1.079-0.833,1.763-1.057C202.967,26.952,203.723,26.84,204.551,26.84z M203.645,43.323
		c-0.112,0-0.213-0.005-0.303-0.017c-0.089-0.011-0.19-0.028-0.302-0.05c-0.492,0.381-0.918,0.839-1.275,1.376
		c-0.358,0.537-0.537,1.085-0.537,1.645c0,0.269,0.039,0.509,0.117,0.722c0.078,0.212,0.219,0.397,0.42,0.554
		c0.201,0.156,0.486,0.28,0.855,0.37c0.369,0.089,0.845,0.134,1.427,0.134c0.604,0,1.119-0.079,1.545-0.235
		c0.425-0.157,0.777-0.364,1.057-0.621c0.28-0.257,0.487-0.537,0.621-0.839c0.135-0.302,0.202-0.599,0.202-0.89
		c0-0.381-0.063-0.694-0.185-0.94c-0.124-0.247-0.331-0.453-0.621-0.621c-0.292-0.168-0.684-0.296-1.176-0.386
		C204.998,43.435,204.383,43.368,203.645,43.323z M204.45,28.854c-0.717,0-1.326,0.308-1.83,0.923
		c-0.503,0.616-0.755,1.662-0.755,3.139c0,0.604,0.033,1.142,0.101,1.611c0.067,0.47,0.189,0.868,0.369,1.192
		c0.179,0.325,0.431,0.57,0.756,0.738c0.324,0.168,0.743,0.252,1.259,0.252c0.895,0,1.544-0.369,1.946-1.108
		c0.403-0.738,0.604-1.846,0.604-3.323c0-1.23-0.207-2.109-0.621-2.635S205.256,28.854,204.45,28.854z"/>
	<path fill="#FFFFFF" d="M215.192,43.423c0,0.134-0.017,0.241-0.05,0.319c-0.034,0.079-0.141,0.134-0.319,0.168
		s-0.453,0.05-0.822,0.05s-0.901,0-1.595,0V28.417c0-0.313,0.039-0.554,0.118-0.722c0.078-0.167,0.223-0.291,0.436-0.369
		c0.213-0.078,0.498-0.123,0.856-0.134c0.357-0.011,0.816-0.017,1.376-0.017V43.423z M212.44,21.838
		c0.021-0.604,0.156-1.091,0.402-1.46c0.246-0.37,0.638-0.554,1.175-0.554c0.515,0,0.873,0.146,1.074,0.437
		c0.202,0.291,0.291,0.794,0.269,1.511c0,0.694-0.129,1.231-0.386,1.611c-0.258,0.381-0.644,0.571-1.158,0.571
		c-0.448,0-0.789-0.157-1.023-0.47C212.557,23.17,212.44,22.622,212.44,21.838z"/>
	<path fill="#FFFFFF" d="M229.56,23.013v20.41c0,0.134-0.017,0.241-0.05,0.319c-0.033,0.079-0.135,0.134-0.302,0.168
		c-0.168,0.034-0.437,0.05-0.806,0.05c-0.37,0-0.89,0-1.562,0V23.013h-4.565v-1.981c0-0.38,0.189-0.571,0.57-0.571h11.414v2.015
		c0,0.358-0.19,0.537-0.57,0.537H229.56z"/>
	<path fill="#FFFFFF" d="M238.119,26.84c2.842,0,4.264,1.802,4.264,5.405c0,0.739-0.028,1.5-0.084,2.283
		c-0.057,0.784-0.151,1.477-0.285,2.082c-0.583,0.112-1.198,0.201-1.847,0.269c-0.649,0.067-1.292,0.123-1.931,0.167
		c-0.638,0.045-1.236,0.073-1.796,0.084c-0.56,0.012-1.04,0.017-1.443,0.017c0.022,0.895,0.106,1.634,0.252,2.215
		c0.146,0.583,0.341,1.041,0.588,1.376c0.245,0.335,0.559,0.571,0.939,0.705c0.38,0.134,0.828,0.201,1.343,0.201
		c0.672,0,1.331-0.095,1.98-0.285c0.649-0.19,1.265-0.442,1.847-0.755c0.089,0.247,0.151,0.549,0.185,0.906
		c0.033,0.358,0.05,0.671,0.05,0.94s-0.123,0.515-0.369,0.739s-0.582,0.419-1.007,0.587s-0.918,0.296-1.477,0.386
		c-0.561,0.089-1.153,0.134-1.779,0.134c-0.784,0-1.506-0.101-2.166-0.302c-0.66-0.202-1.225-0.587-1.694-1.158
		c-0.471-0.571-0.84-1.371-1.108-2.4c-0.269-1.029-0.402-2.361-0.402-3.995c0-2.104,0.173-3.788,0.52-5.052
		c0.347-1.264,0.795-2.232,1.343-2.904c0.549-0.671,1.181-1.113,1.897-1.326C236.654,26.946,237.381,26.84,238.119,26.84z
		 M237.818,29.223c-0.336,0-0.661,0.084-0.974,0.252c-0.313,0.168-0.6,0.47-0.856,0.906c-0.257,0.437-0.47,1.019-0.638,1.746
		c-0.168,0.728-0.274,1.662-0.318,2.803c0.313,0,0.671,0,1.074,0c0.402,0,0.811-0.017,1.225-0.05s0.817-0.072,1.209-0.118
		c0.391-0.044,0.732-0.112,1.023-0.201c0.067-0.313,0.112-0.649,0.135-1.007c0.021-0.357,0.033-0.693,0.033-1.007
		c-0.022-1.208-0.168-2.064-0.437-2.568C239.026,29.475,238.533,29.223,237.818,29.223z"/>
	<path fill="#FFFFFF" d="M244.799,20.529c0-0.313,0.039-0.554,0.118-0.722c0.078-0.168,0.218-0.291,0.419-0.369
		c0.202-0.078,0.481-0.123,0.84-0.134c0.357-0.011,0.816-0.017,1.376-0.017v9.098c0.56-0.47,1.22-0.845,1.98-1.125
		s1.499-0.42,2.216-0.42c0.56,0,1.019,0.079,1.376,0.235c0.358,0.157,0.649,0.37,0.873,0.638s0.381,0.576,0.47,0.923
		c0.09,0.347,0.135,0.711,0.135,1.091c0,0.694-0.106,1.326-0.319,1.896s-0.465,1.074-0.755,1.511
		c-0.291,0.437-0.6,0.806-0.923,1.108c-0.325,0.302-0.588,0.532-0.789,0.688c0.806,0.358,1.527,1.007,2.165,1.947
		s1.023,2.182,1.158,3.726c0.021,0.179,0.033,0.358,0.033,0.537c0,0.179,0,0.369,0,0.571c0,0.537-0.033,1.107-0.101,1.712
		c-0.022,0.134-0.05,0.241-0.084,0.319c-0.033,0.079-0.15,0.134-0.353,0.168c-0.201,0.034-0.503,0.05-0.906,0.05
		c-0.402,0-0.985,0-1.745,0c0.044-0.38,0.078-0.75,0.101-1.108c0.021-0.357,0.033-0.705,0.033-1.041c0-0.38-0.017-0.727-0.05-1.041
		c-0.034-0.313-0.073-0.626-0.118-0.94c-0.201-1.343-0.576-2.288-1.124-2.837c-0.549-0.548-1.147-0.755-1.796-0.621
		c-0.157,0.045-0.319,0.101-0.487,0.168c-0.168,0.067-0.33,0.134-0.486,0.202c-0.18,0.089-0.348,0.179-0.504,0.269v6.412
		c0,0.134-0.012,0.241-0.033,0.319c-0.022,0.079-0.118,0.134-0.286,0.168c-0.167,0.034-0.441,0.05-0.822,0.05s-0.918,0-1.611,0
		V20.529z M251.58,30.667c0-0.917-0.414-1.376-1.242-1.376c-0.447,0-0.912,0.134-1.393,0.403c-0.481,0.269-0.946,0.671-1.394,1.208
		v4.163c1.163-0.47,2.126-1.058,2.887-1.762C251.199,32.597,251.58,31.719,251.58,30.667z"/>
	<path fill="#FFFFFF" d="M257.556,27.981c0.336-0.134,0.716-0.274,1.142-0.42c0.425-0.145,0.872-0.269,1.343-0.369
		c0.47-0.101,0.945-0.185,1.427-0.252c0.48-0.067,0.945-0.101,1.393-0.101c1.768,0,2.999,0.341,3.692,1.024
		c0.694,0.683,1.041,1.841,1.041,3.475v12.085c0,0.134-0.017,0.241-0.05,0.319c-0.034,0.079-0.141,0.134-0.319,0.168
		c-0.18,0.034-0.459,0.05-0.839,0.05c-0.381,0-0.918,0-1.611,0V32.144c0-1.074-0.124-1.83-0.37-2.266s-0.794-0.655-1.645-0.655
		c-0.358,0-0.767,0.051-1.226,0.151s-0.878,0.251-1.259,0.453v13.596c0,0.134-0.017,0.241-0.05,0.319
		c-0.034,0.079-0.141,0.134-0.319,0.168c-0.18,0.034-0.448,0.05-0.806,0.05c-0.358,0-0.873,0-1.544,0V27.981z"/>
	<path fill="#FFFFFF" d="M269.674,35.568c0-3.066,0.486-5.287,1.46-6.664c0.974-1.376,2.345-2.064,4.112-2.064
		c0.873,0,1.64,0.129,2.3,0.386s1.203,0.716,1.628,1.376s0.744,1.544,0.957,2.652c0.212,1.108,0.319,2.512,0.319,4.213
		c0,3.134-0.471,5.388-1.41,6.764c-0.94,1.376-2.306,2.065-4.096,2.065c-0.873,0-1.634-0.101-2.283-0.302
		c-0.649-0.202-1.197-0.61-1.645-1.226c-0.448-0.615-0.783-1.499-1.007-2.652C269.785,38.964,269.674,37.448,269.674,35.568z
		 M272.628,35.635c0,1.388,0.051,2.496,0.151,3.323c0.101,0.828,0.252,1.466,0.453,1.914c0.201,0.448,0.453,0.744,0.755,0.89
		c0.303,0.146,0.644,0.218,1.024,0.218c0.357,0,0.688-0.089,0.99-0.269c0.302-0.179,0.564-0.515,0.789-1.007
		c0.223-0.492,0.396-1.152,0.52-1.98c0.123-0.828,0.185-1.902,0.185-3.223c0-1.343-0.05-2.422-0.15-3.24
		c-0.101-0.816-0.247-1.449-0.437-1.896c-0.19-0.447-0.432-0.75-0.722-0.906c-0.291-0.156-0.638-0.235-1.041-0.235
		c-0.381,0-0.722,0.09-1.023,0.269c-0.303,0.18-0.565,0.504-0.789,0.974c-0.224,0.47-0.397,1.125-0.521,1.964
		S272.628,34.337,272.628,35.635z"/>
	<path fill="#FFFFFF" d="M285.486,43.423c0,0.134-0.018,0.241-0.051,0.319c-0.033,0.079-0.134,0.134-0.302,0.168
		s-0.437,0.05-0.806,0.05s-0.89,0-1.562,0V20.529c0-0.313,0.039-0.554,0.118-0.722c0.078-0.168,0.218-0.291,0.419-0.369
		c0.202-0.078,0.481-0.123,0.84-0.134c0.357-0.011,0.806-0.017,1.343-0.017V43.423z"/>
	<path fill="#FFFFFF" d="M287.835,35.568c0-3.066,0.486-5.287,1.46-6.664c0.974-1.376,2.345-2.064,4.112-2.064
		c0.873,0,1.64,0.129,2.3,0.386s1.203,0.716,1.628,1.376s0.744,1.544,0.957,2.652c0.212,1.108,0.319,2.512,0.319,4.213
		c0,3.134-0.471,5.388-1.41,6.764c-0.94,1.376-2.306,2.065-4.096,2.065c-0.873,0-1.634-0.101-2.283-0.302
		c-0.649-0.202-1.197-0.61-1.645-1.226c-0.448-0.615-0.783-1.499-1.007-2.652C287.947,38.964,287.835,37.448,287.835,35.568z
		 M290.789,35.635c0,1.388,0.051,2.496,0.151,3.323c0.101,0.828,0.252,1.466,0.453,1.914c0.201,0.448,0.453,0.744,0.755,0.89
		c0.303,0.146,0.644,0.218,1.024,0.218c0.357,0,0.688-0.089,0.99-0.269c0.302-0.179,0.564-0.515,0.789-1.007
		c0.223-0.492,0.396-1.152,0.52-1.98c0.123-0.828,0.185-1.902,0.185-3.223c0-1.343-0.05-2.422-0.15-3.24
		c-0.101-0.816-0.247-1.449-0.437-1.896c-0.19-0.447-0.432-0.75-0.722-0.906c-0.291-0.156-0.638-0.235-1.041-0.235
		c-0.381,0-0.722,0.09-1.023,0.269c-0.303,0.18-0.565,0.504-0.789,0.974c-0.224,0.47-0.397,1.125-0.521,1.964
		S290.789,34.337,290.789,35.635z"/>
	<path fill="#FFFFFF" d="M306.265,26.84c0.224,0,0.486,0.022,0.789,0.067c0.302,0.045,0.599,0.112,0.89,0.201h4.028
		c0.067,0.112,0.128,0.28,0.185,0.503c0.056,0.224,0.084,0.493,0.084,0.806c0,0.694-0.313,1.041-0.94,1.041
		c-0.313,0-0.716-0.056-1.208-0.168c0.38,0.381,0.688,0.873,0.923,1.477c0.235,0.604,0.353,1.321,0.353,2.148
		c0,1.791-0.42,3.217-1.259,4.28s-2.232,1.594-4.18,1.594c-0.627,0-1.13-0.044-1.511-0.134c-0.224,0.224-0.425,0.47-0.604,0.739
		c-0.18,0.269-0.269,0.515-0.269,0.738c0,0.157,0.101,0.286,0.302,0.386s0.48,0.185,0.839,0.252
		c0.358,0.067,0.777,0.134,1.259,0.201c0.481,0.067,1.002,0.134,1.562,0.202c0.671,0.112,1.275,0.251,1.813,0.419
		s1.001,0.403,1.394,0.705c0.391,0.302,0.693,0.677,0.906,1.125c0.212,0.448,0.318,1.007,0.318,1.679
		c0,0.716-0.123,1.404-0.369,2.064c-0.246,0.66-0.633,1.242-1.158,1.746c-0.525,0.503-1.197,0.906-2.014,1.208
		c-0.817,0.302-1.785,0.453-2.904,0.453s-2.03-0.106-2.735-0.319c-0.705-0.213-1.254-0.499-1.646-0.856
		c-0.392-0.358-0.654-0.75-0.788-1.175c-0.135-0.425-0.202-0.862-0.202-1.309c0-0.828,0.246-1.583,0.739-2.266
		c0.491-0.683,1.096-1.27,1.813-1.762c-0.649-0.179-1.158-0.419-1.527-0.722s-0.543-0.677-0.521-1.125
		c0.021-0.448,0.224-0.935,0.604-1.46c0.38-0.525,0.895-1.046,1.544-1.561c-0.784-0.515-1.326-1.214-1.628-2.098
		c-0.303-0.884-0.453-1.863-0.453-2.937c0-1.119,0.134-2.07,0.402-2.854c0.269-0.783,0.649-1.416,1.142-1.897
		c0.492-0.481,1.079-0.833,1.763-1.057C304.681,26.952,305.437,26.84,306.265,26.84z M305.359,43.323
		c-0.112,0-0.213-0.005-0.303-0.017c-0.089-0.011-0.19-0.028-0.302-0.05c-0.492,0.381-0.918,0.839-1.275,1.376
		c-0.358,0.537-0.537,1.085-0.537,1.645c0,0.269,0.039,0.509,0.117,0.722c0.078,0.212,0.219,0.397,0.42,0.554
		c0.201,0.156,0.486,0.28,0.855,0.37c0.369,0.089,0.845,0.134,1.427,0.134c0.604,0,1.119-0.079,1.545-0.235
		c0.425-0.157,0.777-0.364,1.057-0.621c0.28-0.257,0.487-0.537,0.621-0.839c0.135-0.302,0.202-0.599,0.202-0.89
		c0-0.381-0.063-0.694-0.185-0.94c-0.124-0.247-0.331-0.453-0.621-0.621c-0.292-0.168-0.684-0.296-1.176-0.386
		C306.712,43.435,306.097,43.368,305.359,43.323z M306.164,28.854c-0.717,0-1.326,0.308-1.83,0.923
		c-0.503,0.616-0.755,1.662-0.755,3.139c0,0.604,0.033,1.142,0.101,1.611c0.067,0.47,0.189,0.868,0.369,1.192
		c0.179,0.325,0.431,0.57,0.756,0.738c0.324,0.168,0.743,0.252,1.259,0.252c0.895,0,1.544-0.369,1.946-1.108
		c0.403-0.738,0.604-1.846,0.604-3.323c0-1.23-0.207-2.109-0.621-2.635S306.97,28.854,306.164,28.854z"/>
	<path fill="#FFFFFF" d="M316.906,43.423c0,0.134-0.017,0.241-0.05,0.319c-0.034,0.079-0.141,0.134-0.319,0.168
		s-0.453,0.05-0.822,0.05s-0.901,0-1.595,0V28.417c0-0.313,0.039-0.554,0.118-0.722c0.078-0.167,0.223-0.291,0.436-0.369
		c0.213-0.078,0.498-0.123,0.856-0.134c0.357-0.011,0.816-0.017,1.376-0.017V43.423z M314.154,21.838
		c0.021-0.604,0.156-1.091,0.402-1.46c0.246-0.37,0.638-0.554,1.175-0.554c0.515,0,0.873,0.146,1.074,0.437
		c0.202,0.291,0.291,0.794,0.269,1.511c0,0.694-0.129,1.231-0.386,1.611c-0.258,0.381-0.644,0.571-1.158,0.571
		c-0.448,0-0.789-0.157-1.023-0.47C314.271,23.17,314.154,22.622,314.154,21.838z"/>
	<path fill="#FFFFFF" d="M325.163,21.1c0-0.202,0.062-0.358,0.185-0.47c0.123-0.112,0.363-0.168,0.722-0.168h3.323
		c0.672,0,1.343,0.067,2.015,0.202c0.671,0.134,1.275,0.392,1.813,0.772c0.537,0.381,0.974,0.912,1.31,1.595
		c0.336,0.683,0.503,1.561,0.503,2.635c0,0.918-0.101,1.707-0.302,2.367s-0.459,1.208-0.772,1.645
		c-0.313,0.436-0.66,0.767-1.04,0.99c-0.381,0.224-0.75,0.358-1.108,0.403c0.381,0.022,0.801,0.101,1.26,0.235
		c0.458,0.134,0.889,0.381,1.292,0.738c0.402,0.358,0.738,0.851,1.007,1.478s0.403,1.443,0.403,2.45c0,1.41-0.168,2.619-0.504,3.625
		c-0.336,1.007-0.795,1.835-1.376,2.484c-0.582,0.649-1.259,1.125-2.031,1.427s-1.595,0.453-2.468,0.453h-4.229V21.1z
		 M327.949,30.063h1.646c0.716,0,1.303-0.307,1.762-0.923s0.688-1.595,0.688-2.938c0-0.693-0.067-1.253-0.201-1.679
		c-0.135-0.425-0.319-0.76-0.554-1.007c-0.235-0.246-0.504-0.414-0.806-0.503c-0.303-0.089-0.61-0.134-0.924-0.134h-1.611V30.063z
		 M327.949,41.577h1.511c0.425,0,0.822-0.101,1.192-0.302c0.369-0.202,0.698-0.521,0.99-0.957c0.29-0.437,0.52-0.991,0.688-1.662
		s0.252-1.488,0.252-2.45c0-0.873-0.078-1.561-0.235-2.065c-0.156-0.503-0.369-0.884-0.638-1.141
		c-0.269-0.257-0.593-0.419-0.974-0.487c-0.38-0.067-0.794-0.101-1.241-0.101h-1.545V41.577z"/>
	<path fill="#FFFFFF" d="M337.349,28.686c0-0.179,0.028-0.352,0.084-0.52s0.151-0.308,0.285-0.42
		c0.291-0.179,0.896-0.375,1.813-0.587c0.917-0.212,2.014-0.319,3.289-0.319c1.455,0,2.513,0.302,3.173,0.906
		c0.66,0.604,0.99,1.667,0.99,3.189v1.779c0,0.962,0,1.93,0,2.903c0,0.974-0.012,1.914-0.033,2.82
		c-0.022,0.906-0.046,1.762-0.067,2.568c-0.022,0.806-0.057,1.522-0.101,2.148c-0.448,0.269-1.063,0.526-1.847,0.772
		s-1.724,0.37-2.819,0.37c-0.604,0-1.198-0.045-1.779-0.134c-0.583-0.09-1.097-0.313-1.545-0.672
		c-0.447-0.357-0.806-0.878-1.074-1.561s-0.402-1.595-0.402-2.736c0-1.163,0.128-2.103,0.386-2.82
		c0.257-0.716,0.593-1.275,1.007-1.678s0.89-0.671,1.427-0.806s1.086-0.202,1.646-0.202c0.38,0,0.8,0.028,1.259,0.084
		c0.458,0.056,0.855,0.174,1.191,0.353v-2.652c0-0.783-0.179-1.31-0.537-1.578s-0.873-0.403-1.544-0.403
		c-0.851,0-1.679,0.073-2.484,0.218c-0.806,0.146-1.455,0.319-1.947,0.521c-0.156-0.269-0.257-0.542-0.302-0.822
		S337.349,28.888,337.349,28.686z M344.231,36.038c-0.224-0.112-0.481-0.19-0.771-0.235c-0.292-0.045-0.561-0.067-0.806-0.067
		c-0.336,0-0.655,0.04-0.957,0.118c-0.303,0.079-0.565,0.241-0.789,0.487s-0.402,0.587-0.537,1.023
		c-0.134,0.437-0.201,1.024-0.201,1.763c0,0.604,0.05,1.097,0.15,1.477c0.102,0.381,0.246,0.677,0.437,0.89
		c0.19,0.213,0.42,0.353,0.688,0.419c0.269,0.067,0.57,0.101,0.906,0.101c0.381,0,0.733-0.055,1.058-0.167
		c0.324-0.112,0.564-0.246,0.722-0.403c0.022-0.269,0.039-0.621,0.051-1.058c0.011-0.437,0.021-0.9,0.033-1.393
		c0.011-0.492,0.017-0.996,0.017-1.511C344.231,36.967,344.231,36.486,344.231,36.038z"/>
	<path fill="#FFFFFF" d="M349.737,27.981c0.336-0.134,0.716-0.274,1.142-0.42c0.425-0.145,0.872-0.269,1.343-0.369
		c0.47-0.101,0.945-0.185,1.427-0.252c0.48-0.067,0.945-0.101,1.393-0.101c1.768,0,2.999,0.341,3.692,1.024
		c0.694,0.683,1.041,1.841,1.041,3.475v12.085c0,0.134-0.017,0.241-0.05,0.319c-0.034,0.079-0.141,0.134-0.319,0.168
		c-0.18,0.034-0.459,0.05-0.839,0.05c-0.381,0-0.918,0-1.611,0V32.144c0-1.074-0.124-1.83-0.37-2.266s-0.794-0.655-1.645-0.655
		c-0.358,0-0.767,0.051-1.226,0.151s-0.878,0.251-1.259,0.453v13.596c0,0.134-0.017,0.241-0.05,0.319
		c-0.034,0.079-0.141,0.134-0.319,0.168c-0.18,0.034-0.448,0.05-0.806,0.05c-0.358,0-0.873,0-1.544,0V27.981z"/>
	<path fill="#FFFFFF" d="M369.675,20.529c0-0.313,0.039-0.554,0.118-0.722c0.078-0.168,0.218-0.291,0.419-0.369
		c0.202-0.078,0.476-0.123,0.823-0.134c0.347-0.011,0.8-0.017,1.359-0.017v24.002c-0.56,0.269-1.237,0.503-2.031,0.705
		c-0.795,0.201-1.718,0.302-2.77,0.302c-0.738,0-1.438-0.084-2.098-0.252c-0.66-0.168-1.242-0.531-1.746-1.091
		c-0.503-0.559-0.901-1.376-1.191-2.45c-0.291-1.074-0.437-2.518-0.437-4.331c0-1.656,0.135-3.077,0.403-4.264
		c0.269-1.186,0.638-2.153,1.107-2.903s1.018-1.298,1.645-1.645c0.627-0.347,1.298-0.521,2.015-0.521
		c1.007,0,1.801,0.224,2.383,0.671V20.529z M369.675,29.66c-0.224-0.179-0.447-0.296-0.671-0.353
		c-0.224-0.056-0.515-0.084-0.873-0.084c-0.381,0-0.744,0.09-1.091,0.269c-0.348,0.18-0.66,0.51-0.94,0.991
		c-0.279,0.481-0.503,1.158-0.671,2.031s-0.252,1.992-0.252,3.357c0,1.253,0.056,2.272,0.168,3.055
		c0.111,0.784,0.279,1.394,0.504,1.83c0.223,0.437,0.486,0.728,0.788,0.873c0.303,0.146,0.655,0.218,1.058,0.218
		c0.381,0,0.739-0.039,1.074-0.118c0.336-0.078,0.638-0.207,0.906-0.386V29.66z"/>
	<path fill="#FFFFFF" d="M385.521,43.087c-0.649,0.358-1.416,0.649-2.3,0.873c-0.885,0.224-1.785,0.336-2.702,0.336
		c-1.007,0-1.836-0.112-2.484-0.336c-0.649-0.224-1.164-0.571-1.544-1.041c-0.381-0.47-0.644-1.052-0.789-1.746
		c-0.146-0.693-0.218-1.511-0.218-2.451V27.746c0-0.134,0.017-0.24,0.05-0.319c0.033-0.078,0.135-0.134,0.302-0.167
		c0.168-0.034,0.442-0.056,0.823-0.067c0.38-0.011,0.928-0.017,1.645-0.017v11.783c0,1.097,0.146,1.863,0.437,2.3
		c0.29,0.436,0.895,0.654,1.813,0.654c0.313,0,0.677-0.039,1.091-0.117c0.414-0.078,0.8-0.24,1.158-0.487V27.746
		c0-0.134,0.018-0.24,0.051-0.319c0.033-0.078,0.134-0.134,0.302-0.167c0.168-0.034,0.437-0.056,0.806-0.067
		c0.369-0.011,0.89-0.017,1.562-0.017V43.087z"/>
	<path fill="#FFFFFF" d="M388.609,27.981c0.336-0.134,0.716-0.274,1.142-0.42c0.425-0.145,0.872-0.269,1.343-0.369
		c0.47-0.101,0.945-0.185,1.427-0.252c0.48-0.067,0.945-0.101,1.393-0.101c1.768,0,2.999,0.341,3.692,1.024
		c0.694,0.683,1.041,1.841,1.041,3.475v12.085c0,0.134-0.017,0.241-0.05,0.319c-0.034,0.079-0.141,0.134-0.319,0.168
		c-0.18,0.034-0.459,0.05-0.839,0.05c-0.381,0-0.918,0-1.611,0V32.144c0-1.074-0.124-1.83-0.37-2.266s-0.794-0.655-1.645-0.655
		c-0.358,0-0.767,0.051-1.226,0.151s-0.878,0.251-1.259,0.453v13.596c0,0.134-0.017,0.241-0.05,0.319
		c-0.034,0.079-0.141,0.134-0.319,0.168c-0.18,0.034-0.448,0.05-0.806,0.05c-0.358,0-0.873,0-1.544,0V27.981z"/>
	<path fill="#FFFFFF" d="M406.803,26.84c0.224,0,0.486,0.022,0.789,0.067c0.302,0.045,0.599,0.112,0.89,0.201h4.028
		c0.067,0.112,0.128,0.28,0.185,0.503c0.056,0.224,0.084,0.493,0.084,0.806c0,0.694-0.313,1.041-0.94,1.041
		c-0.313,0-0.716-0.056-1.208-0.168c0.38,0.381,0.688,0.873,0.923,1.477c0.235,0.604,0.353,1.321,0.353,2.148
		c0,1.791-0.42,3.217-1.259,4.28s-2.232,1.594-4.18,1.594c-0.627,0-1.13-0.044-1.511-0.134c-0.224,0.224-0.425,0.47-0.604,0.739
		c-0.18,0.269-0.269,0.515-0.269,0.738c0,0.157,0.101,0.286,0.302,0.386s0.48,0.185,0.839,0.252
		c0.358,0.067,0.777,0.134,1.259,0.201c0.481,0.067,1.002,0.134,1.562,0.202c0.671,0.112,1.275,0.251,1.813,0.419
		s1.001,0.403,1.394,0.705c0.391,0.302,0.693,0.677,0.906,1.125c0.212,0.448,0.318,1.007,0.318,1.679
		c0,0.716-0.123,1.404-0.369,2.064c-0.246,0.66-0.633,1.242-1.158,1.746c-0.525,0.503-1.197,0.906-2.014,1.208
		c-0.817,0.302-1.785,0.453-2.904,0.453s-2.03-0.106-2.735-0.319c-0.705-0.213-1.254-0.499-1.646-0.856
		c-0.392-0.358-0.654-0.75-0.788-1.175c-0.135-0.425-0.202-0.862-0.202-1.309c0-0.828,0.246-1.583,0.739-2.266
		c0.491-0.683,1.096-1.27,1.813-1.762c-0.649-0.179-1.158-0.419-1.527-0.722s-0.543-0.677-0.521-1.125
		c0.021-0.448,0.224-0.935,0.604-1.46c0.38-0.525,0.895-1.046,1.544-1.561c-0.784-0.515-1.326-1.214-1.628-2.098
		c-0.303-0.884-0.453-1.863-0.453-2.937c0-1.119,0.134-2.07,0.402-2.854c0.269-0.783,0.649-1.416,1.142-1.897
		c0.492-0.481,1.079-0.833,1.763-1.057C405.219,26.952,405.975,26.84,406.803,26.84z M405.897,43.323
		c-0.112,0-0.213-0.005-0.303-0.017c-0.089-0.011-0.19-0.028-0.302-0.05c-0.492,0.381-0.918,0.839-1.275,1.376
		c-0.358,0.537-0.537,1.085-0.537,1.645c0,0.269,0.039,0.509,0.117,0.722c0.078,0.212,0.219,0.397,0.42,0.554
		c0.201,0.156,0.486,0.28,0.855,0.37c0.369,0.089,0.845,0.134,1.427,0.134c0.604,0,1.119-0.079,1.545-0.235
		c0.425-0.157,0.777-0.364,1.057-0.621c0.28-0.257,0.487-0.537,0.621-0.839c0.135-0.302,0.202-0.599,0.202-0.89
		c0-0.381-0.063-0.694-0.185-0.94c-0.124-0.247-0.331-0.453-0.621-0.621c-0.292-0.168-0.684-0.296-1.176-0.386
		C407.25,43.435,406.635,43.368,405.897,43.323z M406.702,28.854c-0.717,0-1.326,0.308-1.83,0.923
		c-0.503,0.616-0.755,1.662-0.755,3.139c0,0.604,0.033,1.142,0.101,1.611c0.067,0.47,0.189,0.868,0.369,1.192
		c0.179,0.325,0.431,0.57,0.756,0.738c0.324,0.168,0.743,0.252,1.259,0.252c0.895,0,1.544-0.369,1.946-1.108
		c0.403-0.738,0.604-1.846,0.604-3.323c0-1.23-0.207-2.109-0.621-2.635S407.508,28.854,406.702,28.854z"/>
</g>
<g>
	<path fill="#FFFFFF" d="M72.672,61.222v4.205h-1.445V61.28l-3.353-5.202h1.633l2.5,3.901l2.428-3.901h1.531L72.672,61.222z"/>
	<path fill="#FFFFFF" d="M80.572,65.687c-3.236,0-4.219-2.11-4.219-4.899c0-2.76,1.112-4.884,4.233-4.884s4.162,2.037,4.162,4.884
		C84.748,63.563,83.679,65.687,80.572,65.687z M80.572,57.017c-1.965,0-2.73,1.301-2.73,3.771c0,2.529,0.751,3.786,2.73,3.786
		c2.023,0,2.688-1.431,2.688-3.786C83.26,58.303,82.523,57.017,80.572,57.017z"/>
	<path fill="#FFFFFF" d="M90.421,65.687c-2.615,0-3.771-1.214-3.771-3.714v-5.896h1.445v5.751c0,2.24,0.882,2.746,2.326,2.746
		c1.373,0,2.139-0.708,2.139-2.746v-5.751h1.445v5.924C94.005,64.487,92.777,65.687,90.421,65.687z"/>
	<path fill="#FFFFFF" d="M101.515,65.427l-2.977-4.032h-0.68v4.032h-1.445v-9.349h3.208c1.488,0,3.078,0.52,3.078,2.601
		c0,1.315-0.606,2.485-2.485,2.673l3.049,4.075H101.515z M99.694,57.19h-1.835v3.092h1.85c1.099,0,1.518-0.694,1.518-1.604
		C101.226,57.739,100.705,57.19,99.694,57.19z"/>
	<path fill="#FFFFFF" d="M111.421,61.626h-1.705v3.8h-1.445v-9.349h2.991c1.908,0,3.223,0.679,3.223,2.731
		C114.485,60.832,113.3,61.626,111.421,61.626z M111.234,57.19h-1.518v3.323h1.59c1.025,0,1.705-0.375,1.705-1.705
		C113.011,57.421,112.231,57.19,111.234,57.19z"/>
	<path fill="#FFFFFF" d="M121.633,65.427l-0.925-2.645h-3.583l-0.983,2.645h-1.517l3.8-9.349h1.271l3.526,9.349H121.633z
		 M118.989,57.754l-1.459,3.945h2.817L118.989,57.754z"/>
	<path fill="#FFFFFF" d="M129.793,65.427l-2.977-4.032h-0.68v4.032h-1.444v-9.349h3.207c1.488,0,3.078,0.52,3.078,2.601
		c0,1.315-0.606,2.485-2.485,2.673l3.049,4.075H129.793z M127.972,57.19h-1.835v3.092h1.85c1.099,0,1.518-0.694,1.518-1.604
		C129.504,57.739,128.984,57.19,127.972,57.19z"/>
	<path fill="#FFFFFF" d="M136.262,57.205v8.222h-1.43v-8.222h-2.674v-1.127h6.777v1.127H136.262z"/>
	<path fill="#FFFFFF" d="M145.521,65.427l-3.858-7.644v7.644h-1.358v-9.349h2.11l3.829,7.644v-7.644h1.416v9.349H145.521z"/>
	<path fill="#FFFFFF" d="M150.068,65.427v-9.349h5.361v1.113h-3.916v2.847h3.612v1.112h-3.612v3.165h4.046v1.113H150.068z"/>
	<path fill="#FFFFFF" d="M162.881,65.427l-2.977-4.032h-0.68v4.032h-1.444v-9.349h3.207c1.488,0,3.078,0.52,3.078,2.601
		c0,1.315-0.606,2.485-2.485,2.673l3.049,4.075H162.881z M161.06,57.19h-1.835v3.092h1.85c1.099,0,1.518-0.694,1.518-1.604
		C162.592,57.739,162.072,57.19,161.06,57.19z"/>
	<path fill="#FFFFFF" d="M172.7,57.205v8.222h-1.43v-8.222h-2.674v-1.127h6.777v1.127H172.7z"/>
	<path fill="#FFFFFF" d="M180.111,65.687c-3.236,0-4.219-2.11-4.219-4.899c0-2.76,1.112-4.884,4.233-4.884s4.162,2.037,4.162,4.884
		C184.287,63.563,183.218,65.687,180.111,65.687z M180.111,57.017c-1.965,0-2.73,1.301-2.73,3.771c0,2.529,0.751,3.786,2.73,3.786
		c2.023,0,2.688-1.431,2.688-3.786C182.799,58.303,182.062,57.017,180.111,57.017z"/>
	<path fill="#FFFFFF" d="M193.153,65.687c-3.28,0-4.118-2.413-4.118-4.942c0-2.876,1.214-4.841,4.248-4.841
		c0.65,0,1.59,0.188,2.254,0.361l-0.462,1.228c-0.563-0.246-1.142-0.477-1.777-0.477c-1.764,0-2.774,1.012-2.774,3.729
		c0,2.254,0.549,3.829,2.673,3.829c0.68,0,1.185-0.188,1.677-0.462v-2.384h-2.066v-1.113h3.352v4.249
		C195.19,65.398,194.439,65.687,193.153,65.687z"/>
	<path fill="#FFFFFF" d="M198.06,65.427v-9.349h1.445v8.193h4.075v1.156H198.06z"/>
	<path fill="#FFFFFF" d="M208.128,65.687c-3.236,0-4.219-2.11-4.219-4.899c0-2.76,1.112-4.884,4.233-4.884s4.162,2.037,4.162,4.884
		C212.305,63.563,211.236,65.687,208.128,65.687z M208.128,57.017c-1.965,0-2.73,1.301-2.73,3.771c0,2.529,0.751,3.786,2.73,3.786
		c2.023,0,2.688-1.431,2.688-3.786C210.817,58.303,210.079,57.017,208.128,57.017z"/>
	<path fill="#FFFFFF" d="M217.617,65.427h-3.411v-9.349h2.934c1.792,0,3.15,0.506,3.15,2.514c0,0.983-0.636,1.662-1.488,1.937
		c1.156,0.202,1.922,0.91,1.922,2.211C220.724,64.877,219.293,65.427,217.617,65.427z M217.14,57.19h-1.488v2.875h1.69
		c0.824,0,1.475-0.448,1.475-1.459C218.817,57.653,218.354,57.19,217.14,57.19z M217.371,61.164h-1.72v3.15h1.879
		c0.968,0,1.705-0.289,1.705-1.575C219.236,61.482,218.398,61.164,217.371,61.164z"/>
	<path fill="#FFFFFF" d="M228.624,65.427l-0.925-2.645h-3.583l-0.983,2.645h-1.517l3.8-9.349h1.271l3.526,9.349H228.624z
		 M225.98,57.754l-1.459,3.945h2.817L225.98,57.754z"/>
	<path fill="#FFFFFF" d="M231.683,65.427v-9.349h1.445v8.193h4.075v1.156H231.683z"/>
	<path fill="#FFFFFF" d="M245.275,65.687c-3.006,0-4.104-2.038-4.104-4.928c0-2.601,0.997-4.855,4.176-4.855
		c0.81,0,1.662,0.13,2.37,0.361l-0.463,1.228c-0.606-0.26-1.214-0.477-1.907-0.477c-2.052,0-2.688,1.561-2.688,3.729
		c0,2.297,0.636,3.829,2.601,3.829c0.752,0,1.344-0.246,2.096-0.549l0.462,1.229C246.994,65.542,246.257,65.687,245.275,65.687z"/>
	<path fill="#FFFFFF" d="M253.103,65.687c-3.236,0-4.219-2.11-4.219-4.899c0-2.76,1.112-4.884,4.233-4.884s4.162,2.037,4.162,4.884
		C257.28,63.563,256.21,65.687,253.103,65.687z M253.103,57.017c-1.965,0-2.73,1.301-2.73,3.771c0,2.529,0.751,3.786,2.73,3.786
		c2.023,0,2.688-1.431,2.688-3.786C255.791,58.303,255.054,57.017,253.103,57.017z"/>
	<path fill="#FFFFFF" d="M267.736,65.427v-7.817l-2.904,7.817h-1.373l-2.919-7.817v7.817h-1.358v-9.349h2.298l2.717,7.384
		l2.76-7.384h2.183v9.349H267.736z"/>
	<path fill="#FFFFFF" d="M274.694,61.626h-1.705v3.8h-1.444v-9.349h2.99c1.908,0,3.223,0.679,3.223,2.731
		C277.757,60.832,276.573,61.626,274.694,61.626z M274.506,57.19h-1.518v3.323h1.59c1.025,0,1.705-0.375,1.705-1.705
		C276.283,57.421,275.503,57.19,274.506,57.19z"/>
	<path fill="#FFFFFF" d="M279.531,65.427v-9.349h5.361v1.113h-3.916v2.847h3.612v1.112h-3.612v3.165h4.046v1.113H279.531z"/>
	<path fill="#FFFFFF" d="M290.306,57.205v8.222h-1.43v-8.222h-2.674v-1.127h6.777v1.127H290.306z"/>
	<path fill="#FFFFFF" d="M294.176,65.427v-9.349h1.445v9.349H294.176z"/>
	<path fill="#FFFFFF" d="M300.921,57.205v8.222h-1.43v-8.222h-2.674v-1.127h6.777v1.127H300.921z"/>
	<path fill="#FFFFFF" d="M304.791,65.427v-9.349h1.445v9.349H304.791z"/>
	<path fill="#FFFFFF" d="M312.187,65.687c-3.236,0-4.219-2.11-4.219-4.899c0-2.76,1.112-4.884,4.233-4.884s4.162,2.037,4.162,4.884
		C316.364,63.563,315.294,65.687,312.187,65.687z M312.187,57.017c-1.965,0-2.73,1.301-2.73,3.771c0,2.529,0.751,3.786,2.73,3.786
		c2.023,0,2.688-1.431,2.688-3.786C314.875,58.303,314.138,57.017,312.187,57.017z"/>
	<path fill="#FFFFFF" d="M323.482,65.427l-3.858-7.644v7.644h-1.358v-9.349h2.11l3.829,7.644v-7.644h1.416v9.349H323.482z"/>
</g>
</svg>
